(kicad_sch (version 20211123) (generator eeschema)

  (uuid c58e2d19-7d08-478f-8ba5-ca572219cb65)

  (paper "A4")

  (lib_symbols
    (symbol "Connector:Conn_01x02_Female" (pin_names (offset 1.016) hide) (in_bom yes) (on_board yes)
      (property "Reference" "J" (id 0) (at 0 2.54 0)
        (effects (font (size 1.27 1.27)))
      )
      (property "Value" "Conn_01x02_Female" (id 1) (at 0 -5.08 0)
        (effects (font (size 1.27 1.27)))
      )
      (property "Footprint" "" (id 2) (at 0 0 0)
        (effects (font (size 1.27 1.27)) hide)
      )
      (property "Datasheet" "~" (id 3) (at 0 0 0)
        (effects (font (size 1.27 1.27)) hide)
      )
      (property "ki_keywords" "connector" (id 4) (at 0 0 0)
        (effects (font (size 1.27 1.27)) hide)
      )
      (property "ki_description" "Generic connector, single row, 01x02, script generated (kicad-library-utils/schlib/autogen/connector/)" (id 5) (at 0 0 0)
        (effects (font (size 1.27 1.27)) hide)
      )
      (property "ki_fp_filters" "Connector*:*_1x??_*" (id 6) (at 0 0 0)
        (effects (font (size 1.27 1.27)) hide)
      )
      (symbol "Conn_01x02_Female_1_1"
        (arc (start 0 -2.032) (mid -0.508 -2.54) (end 0 -3.048)
          (stroke (width 0.1524) (type default) (color 0 0 0 0))
          (fill (type none))
        )
        (polyline
          (pts
            (xy -1.27 -2.54)
            (xy -0.508 -2.54)
          )
          (stroke (width 0.1524) (type default) (color 0 0 0 0))
          (fill (type none))
        )
        (polyline
          (pts
            (xy -1.27 0)
            (xy -0.508 0)
          )
          (stroke (width 0.1524) (type default) (color 0 0 0 0))
          (fill (type none))
        )
        (arc (start 0 0.508) (mid -0.508 0) (end 0 -0.508)
          (stroke (width 0.1524) (type default) (color 0 0 0 0))
          (fill (type none))
        )
        (pin passive line (at -5.08 0 0) (length 3.81)
          (name "Pin_1" (effects (font (size 1.27 1.27))))
          (number "1" (effects (font (size 1.27 1.27))))
        )
        (pin passive line (at -5.08 -2.54 0) (length 3.81)
          (name "Pin_2" (effects (font (size 1.27 1.27))))
          (number "2" (effects (font (size 1.27 1.27))))
        )
      )
    )
    (symbol "Connector:TestPoint" (pin_numbers hide) (pin_names (offset 0.762) hide) (in_bom yes) (on_board yes)
      (property "Reference" "TP" (id 0) (at 0 6.858 0)
        (effects (font (size 1.27 1.27)))
      )
      (property "Value" "TestPoint" (id 1) (at 0 5.08 0)
        (effects (font (size 1.27 1.27)))
      )
      (property "Footprint" "" (id 2) (at 5.08 0 0)
        (effects (font (size 1.27 1.27)) hide)
      )
      (property "Datasheet" "~" (id 3) (at 5.08 0 0)
        (effects (font (size 1.27 1.27)) hide)
      )
      (property "ki_keywords" "test point tp" (id 4) (at 0 0 0)
        (effects (font (size 1.27 1.27)) hide)
      )
      (property "ki_description" "test point" (id 5) (at 0 0 0)
        (effects (font (size 1.27 1.27)) hide)
      )
      (property "ki_fp_filters" "Pin* Test*" (id 6) (at 0 0 0)
        (effects (font (size 1.27 1.27)) hide)
      )
      (symbol "TestPoint_0_1"
        (circle (center 0 3.302) (radius 0.762)
          (stroke (width 0) (type default) (color 0 0 0 0))
          (fill (type none))
        )
      )
      (symbol "TestPoint_1_1"
        (pin passive line (at 0 0 90) (length 2.54)
          (name "1" (effects (font (size 1.27 1.27))))
          (number "1" (effects (font (size 1.27 1.27))))
        )
      )
    )
    (symbol "Device:C" (pin_numbers hide) (pin_names (offset 0.254)) (in_bom yes) (on_board yes)
      (property "Reference" "C" (id 0) (at 0.635 2.54 0)
        (effects (font (size 1.27 1.27)) (justify left))
      )
      (property "Value" "C" (id 1) (at 0.635 -2.54 0)
        (effects (font (size 1.27 1.27)) (justify left))
      )
      (property "Footprint" "" (id 2) (at 0.9652 -3.81 0)
        (effects (font (size 1.27 1.27)) hide)
      )
      (property "Datasheet" "~" (id 3) (at 0 0 0)
        (effects (font (size 1.27 1.27)) hide)
      )
      (property "ki_keywords" "cap capacitor" (id 4) (at 0 0 0)
        (effects (font (size 1.27 1.27)) hide)
      )
      (property "ki_description" "Unpolarized capacitor" (id 5) (at 0 0 0)
        (effects (font (size 1.27 1.27)) hide)
      )
      (property "ki_fp_filters" "C_*" (id 6) (at 0 0 0)
        (effects (font (size 1.27 1.27)) hide)
      )
      (symbol "C_0_1"
        (polyline
          (pts
            (xy -2.032 -0.762)
            (xy 2.032 -0.762)
          )
          (stroke (width 0.508) (type default) (color 0 0 0 0))
          (fill (type none))
        )
        (polyline
          (pts
            (xy -2.032 0.762)
            (xy 2.032 0.762)
          )
          (stroke (width 0.508) (type default) (color 0 0 0 0))
          (fill (type none))
        )
      )
      (symbol "C_1_1"
        (pin passive line (at 0 3.81 270) (length 2.794)
          (name "~" (effects (font (size 1.27 1.27))))
          (number "1" (effects (font (size 1.27 1.27))))
        )
        (pin passive line (at 0 -3.81 90) (length 2.794)
          (name "~" (effects (font (size 1.27 1.27))))
          (number "2" (effects (font (size 1.27 1.27))))
        )
      )
    )
    (symbol "Device:R" (pin_numbers hide) (pin_names (offset 0)) (in_bom yes) (on_board yes)
      (property "Reference" "R" (id 0) (at 2.032 0 90)
        (effects (font (size 1.27 1.27)))
      )
      (property "Value" "R" (id 1) (at 0 0 90)
        (effects (font (size 1.27 1.27)))
      )
      (property "Footprint" "" (id 2) (at -1.778 0 90)
        (effects (font (size 1.27 1.27)) hide)
      )
      (property "Datasheet" "~" (id 3) (at 0 0 0)
        (effects (font (size 1.27 1.27)) hide)
      )
      (property "ki_keywords" "R res resistor" (id 4) (at 0 0 0)
        (effects (font (size 1.27 1.27)) hide)
      )
      (property "ki_description" "Resistor" (id 5) (at 0 0 0)
        (effects (font (size 1.27 1.27)) hide)
      )
      (property "ki_fp_filters" "R_*" (id 6) (at 0 0 0)
        (effects (font (size 1.27 1.27)) hide)
      )
      (symbol "R_0_1"
        (rectangle (start -1.016 -2.54) (end 1.016 2.54)
          (stroke (width 0.254) (type default) (color 0 0 0 0))
          (fill (type none))
        )
      )
      (symbol "R_1_1"
        (pin passive line (at 0 3.81 270) (length 1.27)
          (name "~" (effects (font (size 1.27 1.27))))
          (number "1" (effects (font (size 1.27 1.27))))
        )
        (pin passive line (at 0 -3.81 90) (length 1.27)
          (name "~" (effects (font (size 1.27 1.27))))
          (number "2" (effects (font (size 1.27 1.27))))
        )
      )
    )
    (symbol "power:GND" (power) (pin_names (offset 0)) (in_bom yes) (on_board yes)
      (property "Reference" "#PWR" (id 0) (at 0 -6.35 0)
        (effects (font (size 1.27 1.27)) hide)
      )
      (property "Value" "GND" (id 1) (at 0 -3.81 0)
        (effects (font (size 1.27 1.27)))
      )
      (property "Footprint" "" (id 2) (at 0 0 0)
        (effects (font (size 1.27 1.27)) hide)
      )
      (property "Datasheet" "" (id 3) (at 0 0 0)
        (effects (font (size 1.27 1.27)) hide)
      )
      (property "ki_keywords" "power-flag" (id 4) (at 0 0 0)
        (effects (font (size 1.27 1.27)) hide)
      )
      (property "ki_description" "Power symbol creates a global label with name \"GND\" , ground" (id 5) (at 0 0 0)
        (effects (font (size 1.27 1.27)) hide)
      )
      (symbol "GND_0_1"
        (polyline
          (pts
            (xy 0 0)
            (xy 0 -1.27)
            (xy 1.27 -1.27)
            (xy 0 -2.54)
            (xy -1.27 -1.27)
            (xy 0 -1.27)
          )
          (stroke (width 0) (type default) (color 0 0 0 0))
          (fill (type none))
        )
      )
      (symbol "GND_1_1"
        (pin power_in line (at 0 0 270) (length 0) hide
          (name "GND" (effects (font (size 1.27 1.27))))
          (number "1" (effects (font (size 1.27 1.27))))
        )
      )
    )
    (symbol "pspice:INDUCTOR" (pin_numbers hide) (pin_names (offset 0)) (in_bom yes) (on_board yes)
      (property "Reference" "L" (id 0) (at 0 2.54 0)
        (effects (font (size 1.27 1.27)))
      )
      (property "Value" "INDUCTOR" (id 1) (at 0 -1.27 0)
        (effects (font (size 1.27 1.27)))
      )
      (property "Footprint" "" (id 2) (at 0 0 0)
        (effects (font (size 1.27 1.27)) hide)
      )
      (property "Datasheet" "~" (id 3) (at 0 0 0)
        (effects (font (size 1.27 1.27)) hide)
      )
      (property "ki_keywords" "simulation" (id 4) (at 0 0 0)
        (effects (font (size 1.27 1.27)) hide)
      )
      (property "ki_description" "Inductor symbol for simulation only" (id 5) (at 0 0 0)
        (effects (font (size 1.27 1.27)) hide)
      )
      (symbol "INDUCTOR_0_1"
        (arc (start -2.54 0) (mid -3.81 1.27) (end -5.08 0)
          (stroke (width 0) (type default) (color 0 0 0 0))
          (fill (type none))
        )
        (arc (start 0 0) (mid -1.27 1.27) (end -2.54 0)
          (stroke (width 0) (type default) (color 0 0 0 0))
          (fill (type none))
        )
        (arc (start 2.54 0) (mid 1.27 1.27) (end 0 0)
          (stroke (width 0) (type default) (color 0 0 0 0))
          (fill (type none))
        )
        (arc (start 5.08 0) (mid 3.81 1.27) (end 2.54 0)
          (stroke (width 0) (type default) (color 0 0 0 0))
          (fill (type none))
        )
      )
      (symbol "INDUCTOR_1_1"
        (pin input line (at -6.35 0 0) (length 1.27)
          (name "1" (effects (font (size 0.762 0.762))))
          (number "1" (effects (font (size 0.762 0.762))))
        )
        (pin input line (at 6.35 0 180) (length 1.27)
          (name "2" (effects (font (size 0.762 0.762))))
          (number "2" (effects (font (size 0.762 0.762))))
        )
      )
    )
    (symbol "watch:TPS62234" (in_bom yes) (on_board yes)
      (property "Reference" "U" (id 0) (at -13.97 10.16 0)
        (effects (font (size 1.27 1.27)))
      )
      (property "Value" "TPS62234" (id 1) (at -13.97 10.16 0)
        (effects (font (size 1.27 1.27)))
      )
      (property "Footprint" "watch:USON-6-1.5x1mm-P0.5mm" (id 2) (at -13.97 10.16 0)
        (effects (font (size 1.27 1.27)) hide)
      )
      (property "Datasheet" "https://www.ti.com/lit/ds/symlink/tps62230.pdf?HQS=dis-mous-null-mousermode-dsf-pf-null-wwe&ts=1673000615114&ref_url=https%253A%252F%252Fwww.mouser.de%252F" (id 3) (at -13.97 10.16 0)
        (effects (font (size 1.27 1.27)) hide)
      )
      (symbol "TPS62234_0_1"
        (rectangle (start -6.35 7.62) (end 6.35 -6.35)
          (stroke (width 0.1524) (type default) (color 0 0 0 0))
          (fill (type background))
        )
      )
      (symbol "TPS62234_1_1"
        (pin input line (at -8.89 -1.27 0) (length 2.54)
          (name "MODE" (effects (font (size 1.27 1.27))))
          (number "1" (effects (font (size 1.27 1.27))))
        )
        (pin power_out line (at 8.89 3.81 180) (length 2.54)
          (name "SW" (effects (font (size 1.27 1.27))))
          (number "2" (effects (font (size 1.27 1.27))))
        )
        (pin power_in line (at 0 10.16 270) (length 2.54)
          (name "VIN" (effects (font (size 1.27 1.27))))
          (number "3" (effects (font (size 1.27 1.27))))
        )
        (pin power_in line (at 0 -8.89 90) (length 2.54)
          (name "GND" (effects (font (size 1.27 1.27))))
          (number "4" (effects (font (size 1.27 1.27))))
        )
        (pin input line (at -8.89 2.54 0) (length 2.54)
          (name "EN" (effects (font (size 1.27 1.27))))
          (number "5" (effects (font (size 1.27 1.27))))
        )
        (pin input line (at 8.89 -2.54 180) (length 2.54)
          (name "FB" (effects (font (size 1.27 1.27))))
          (number "6" (effects (font (size 1.27 1.27))))
        )
      )
    )
  )

  (junction (at 35.56 96.52) (diameter 0) (color 0 0 0 0)
    (uuid 0cb5ff78-b454-47c6-b1ef-c330c4f8c6d9)
  )
  (junction (at 73.66 121.92) (diameter 0) (color 0 0 0 0)
    (uuid 25f324d9-0642-44c3-a257-e34c0689560f)
  )
  (junction (at 73.66 137.16) (diameter 0) (color 0 0 0 0)
    (uuid 61039a39-36b9-43dc-ad7a-3384b359c2b8)
  )
  (junction (at 73.66 107.95) (diameter 0) (color 0 0 0 0)
    (uuid 9c7f4321-e1d1-4730-8fac-87cebc0c9b55)
  )
  (junction (at 73.66 129.54) (diameter 0) (color 0 0 0 0)
    (uuid b023d821-9f0f-4b37-8bc1-e3773422dd0c)
  )

  (wire (pts (xy 73.66 101.6) (xy 77.47 101.6))
    (stroke (width 0) (type default) (color 0 0 0 0))
    (uuid 10152005-25c4-45a4-abf8-a8e56468bf90)
  )
  (wire (pts (xy 68.58 121.92) (xy 73.66 121.92))
    (stroke (width 0) (type default) (color 0 0 0 0))
    (uuid 14ca7e36-7169-4bd5-aa8e-095f4f0b2891)
  )
  (wire (pts (xy 77.47 97.79) (xy 82.55 97.79))
    (stroke (width 0) (type default) (color 0 0 0 0))
    (uuid 18ebe5cc-2034-4688-af18-9dd4b13cfd61)
  )
  (wire (pts (xy 77.47 101.6) (xy 77.47 97.79))
    (stroke (width 0) (type default) (color 0 0 0 0))
    (uuid 2f9900af-4296-4460-ab03-5c38901ff318)
  )
  (wire (pts (xy 46.99 102.87) (xy 55.88 102.87))
    (stroke (width 0) (type default) (color 0 0 0 0))
    (uuid 3572e868-76a7-4b19-ad19-b3892cfd8178)
  )
  (wire (pts (xy 81.28 121.92) (xy 73.66 121.92))
    (stroke (width 0) (type default) (color 0 0 0 0))
    (uuid 4e6aef3b-4f84-43c4-a8bd-0224a7eefb25)
  )
  (wire (pts (xy 35.56 105.41) (xy 35.56 96.52))
    (stroke (width 0) (type default) (color 0 0 0 0))
    (uuid 50f9ff65-464e-42d2-8c7d-6d5974610d88)
  )
  (wire (pts (xy 81.28 137.16) (xy 73.66 137.16))
    (stroke (width 0) (type default) (color 0 0 0 0))
    (uuid 55bb54e5-ab6d-4e5a-98f3-57f7ade98417)
  )
  (wire (pts (xy 27.94 105.41) (xy 27.94 96.52))
    (stroke (width 0) (type default) (color 0 0 0 0))
    (uuid 70fff83c-183f-4128-b2bc-ed96318c50c0)
  )
  (wire (pts (xy 81.28 133.35) (xy 81.28 137.16))
    (stroke (width 0) (type default) (color 0 0 0 0))
    (uuid 7a9cce96-ddde-479d-9981-38f283869b75)
  )
  (wire (pts (xy 68.58 129.54) (xy 73.66 129.54))
    (stroke (width 0) (type default) (color 0 0 0 0))
    (uuid a2e9096f-50d1-454a-8c38-13c20986568c)
  )
  (wire (pts (xy 82.55 110.49) (xy 77.47 110.49))
    (stroke (width 0) (type default) (color 0 0 0 0))
    (uuid aa6a4262-cb45-4ee9-ad7b-c567bbb9110e)
  )
  (wire (pts (xy 77.47 107.95) (xy 73.66 107.95))
    (stroke (width 0) (type default) (color 0 0 0 0))
    (uuid abe2956d-6199-4d93-81b7-202f7b0170a7)
  )
  (wire (pts (xy 77.47 110.49) (xy 77.47 107.95))
    (stroke (width 0) (type default) (color 0 0 0 0))
    (uuid ad96e076-4a4d-459a-bd48-ffcbe2202fcc)
  )
  (wire (pts (xy 73.66 107.95) (xy 73.66 121.92))
    (stroke (width 0) (type default) (color 0 0 0 0))
    (uuid ccef06c2-eeaf-4999-a427-fe345665a213)
  )
  (wire (pts (xy 81.28 125.73) (xy 81.28 121.92))
    (stroke (width 0) (type default) (color 0 0 0 0))
    (uuid eaa9b68c-7cca-47f3-ae07-dc44390ed6ab)
  )

  (global_label "VSys" (shape input) (at 27.94 96.52 180) (fields_autoplaced)
    (effects (font (size 1.27 1.27)) (justify right))
    (uuid 039725b7-d30e-4cab-9700-0966465c25d8)
    (property "Intersheet References" "${INTERSHEET_REFS}" (id 0) (at 21.2331 96.5994 0)
      (effects (font (size 1.27 1.27)) (justify right) hide)
    )
  )
  (global_label "EN" (shape input) (at 52.07 102.87 90) (fields_autoplaced)
    (effects (font (size 1.27 1.27)) (justify left))
    (uuid 270b810c-eaab-4cb6-876a-14195ea46b3e)
    (property "Intersheet References" "${INTERSHEET_REFS}" (id 0) (at 51.9906 97.9774 90)
      (effects (font (size 1.27 1.27)) (justify left) hide)
    )
  )
  (global_label "VOUT" (shape input) (at 97.79 101.6 90) (fields_autoplaced)
    (effects (font (size 1.27 1.27)) (justify left))
    (uuid 88180cf7-fda9-4b28-bc92-a0c6c06febc1)
    (property "Intersheet References" "${INTERSHEET_REFS}" (id 0) (at 97.8694 94.4698 90)
      (effects (font (size 1.27 1.27)) (justify left) hide)
    )
  )
  (global_label "VSys" (shape input) (at 30.48 113.03 180) (fields_autoplaced)
    (effects (font (size 1.27 1.27)) (justify right))
    (uuid 963268b1-8101-4857-9abd-ffe2bbde4279)
    (property "Intersheet References" "${INTERSHEET_REFS}" (id 0) (at 23.7731 113.1094 0)
      (effects (font (size 1.27 1.27)) (justify right) hide)
    )
  )
  (global_label "VSys" (shape input) (at 64.77 95.25 90) (fields_autoplaced)
    (effects (font (size 1.27 1.27)) (justify left))
    (uuid b091cfb2-dffa-4574-880a-e7ac2c12f782)
    (property "Intersheet References" "${INTERSHEET_REFS}" (id 0) (at 64.6906 88.5431 90)
      (effects (font (size 1.27 1.27)) (justify left) hide)
    )
  )
  (global_label "VOUT" (shape input) (at 77.47 110.49 270) (fields_autoplaced)
    (effects (font (size 1.27 1.27)) (justify right))
    (uuid e00cf79b-ccba-4159-b6e0-dbf7e51c59cf)
    (property "Intersheet References" "${INTERSHEET_REFS}" (id 0) (at 77.3906 117.6202 90)
      (effects (font (size 1.27 1.27)) (justify right) hide)
    )
  )

  (symbol (lib_id "Connector:TestPoint") (at 46.99 102.87 90) (unit 1)
    (in_bom yes) (on_board yes) (fields_autoplaced)
    (uuid 0b49dba8-b49e-47b3-8622-f9ef81397c48)
    (property "Reference" "TP1" (id 0) (at 43.688 98.5352 90))
    (property "Value" "TestPoint" (id 1) (at 43.688 101.0721 90))
    (property "Footprint" "TestPoint:TestPoint_Pad_1.0x1.0mm" (id 2) (at 46.99 97.79 0)
      (effects (font (size 1.27 1.27)) hide)
    )
    (property "Datasheet" "~" (id 3) (at 46.99 97.79 0)
      (effects (font (size 1.27 1.27)) hide)
    )
    (pin "1" (uuid c4ba22ad-ef36-46b5-b4c0-b69d41b5627d))
  )

  (symbol (lib_id "watch:TPS62234") (at 64.77 105.41 0) (unit 1)
    (in_bom yes) (on_board yes) (fields_autoplaced)
    (uuid 2c2b4b24-1dfe-4ea1-aefb-0f2c31ca3d81)
    (property "Reference" "U1" (id 0) (at 66.7894 94.141 0)
      (effects (font (size 1.27 1.27)) (justify left))
    )
    (property "Value" "TPS62234" (id 1) (at 66.7894 96.6779 0)
      (effects (font (size 1.27 1.27)) (justify left))
    )
    (property "Footprint" "watch:USON-6-1.5x1mm-P0.5mm" (id 2) (at 50.8 95.25 0)
      (effects (font (size 1.27 1.27)) hide)
    )
    (property "Datasheet" "https://www.ti.com/lit/ds/symlink/tps62230.pdf?HQS=dis-mous-null-mousermode-dsf-pf-null-wwe&ts=1673000615114&ref_url=https%253A%252F%252Fwww.mouser.de%252F" (id 3) (at 50.8 95.25 0)
      (effects (font (size 1.27 1.27)) hide)
    )
    (pin "1" (uuid 2fa75287-ff61-4231-b8f5-7e1d1bf8275c))
    (pin "2" (uuid 3db9c119-efd1-401a-9254-4720f254f41e))
    (pin "3" (uuid 55139f0b-30b9-4001-ac19-491f0e21d8d0))
    (pin "4" (uuid 76bc8f7c-bd00-42e1-88e5-4e659394e960))
    (pin "5" (uuid 37a69c7d-9e51-4c88-bb38-effaccf0472a))
    (pin "6" (uuid 37021675-f879-4167-9647-1d8f88c536d9))
  )

  (symbol (lib_id "Device:R") (at 81.28 129.54 0) (unit 1)
    (in_bom yes) (on_board yes) (fields_autoplaced)
    (uuid 6393e57a-20c5-42f9-b226-1370f05215c1)
    (property "Reference" "R4" (id 0) (at 83.058 128.7053 0)
      (effects (font (size 1.27 1.27)) (justify left))
    )
    (property "Value" "R" (id 1) (at 83.058 131.2422 0)
      (effects (font (size 1.27 1.27)) (justify left))
    )
    (property "Footprint" "Resistor_SMD:R_0402_1005Metric_Pad0.72x0.64mm_HandSolder" (id 2) (at 79.502 129.54 90)
      (effects (font (size 1.27 1.27)) hide)
    )
    (property "Datasheet" "~" (id 3) (at 81.28 129.54 0)
      (effects (font (size 1.27 1.27)) hide)
    )
    (pin "1" (uuid b2917434-5666-4d65-acfd-b7d2b7267bf8))
    (pin "2" (uuid 7dd96a66-2bca-4b69-9e62-d76b31874fd2))
  )

  (symbol (lib_id "power:GND") (at 30.48 115.57 270) (unit 1)
    (in_bom yes) (on_board yes) (fields_autoplaced)
    (uuid 67add77a-5f1d-4824-b4e3-3eac7079740a)
    (property "Reference" "#PWR0102" (id 0) (at 24.13 115.57 0)
      (effects (font (size 1.27 1.27)) hide)
    )
    (property "Value" "GND" (id 1) (at 26.0366 115.57 0))
    (property "Footprint" "" (id 2) (at 30.48 115.57 0)
      (effects (font (size 1.27 1.27)) hide)
    )
    (property "Datasheet" "" (id 3) (at 30.48 115.57 0)
      (effects (font (size 1.27 1.27)) hide)
    )
    (pin "1" (uuid ef361cc1-8207-40e2-9313-231593f87789))
  )

  (symbol (lib_id "Device:C") (at 31.75 105.41 90) (unit 1)
    (in_bom yes) (on_board yes) (fields_autoplaced)
    (uuid 695fbcdd-6d45-46b6-a550-3c17d01f8cdd)
    (property "Reference" "C2" (id 0) (at 30.9153 102.489 0)
      (effects (font (size 1.27 1.27)) (justify left))
    )
    (property "Value" "C" (id 1) (at 33.4522 102.489 0)
      (effects (font (size 1.27 1.27)) (justify left))
    )
    (property "Footprint" "Capacitor_SMD:C_0603_1608Metric" (id 2) (at 35.56 104.4448 0)
      (effects (font (size 1.27 1.27)) hide)
    )
    (property "Datasheet" "~" (id 3) (at 31.75 105.41 0)
      (effects (font (size 1.27 1.27)) hide)
    )
    (pin "1" (uuid 0084f531-be1b-4bb0-9871-b5735c6dbe3d))
    (pin "2" (uuid a5f61ce3-b9fd-4c18-abda-dbe6519ea3d9))
  )

  (symbol (lib_id "power:GND") (at 35.56 96.52 90) (unit 1)
    (in_bom yes) (on_board yes) (fields_autoplaced)
    (uuid 70439a5e-0a34-4db6-8a92-805343e6b040)
    (property "Reference" "#PWR0107" (id 0) (at 41.91 96.52 0)
      (effects (font (size 1.27 1.27)) hide)
    )
    (property "Value" "GND" (id 1) (at 37.2638 94.615 0)
      (effects (font (size 1.27 1.27)) (justify left))
    )
    (property "Footprint" "" (id 2) (at 35.56 96.52 0)
      (effects (font (size 1.27 1.27)) hide)
    )
    (property "Datasheet" "" (id 3) (at 35.56 96.52 0)
      (effects (font (size 1.27 1.27)) hide)
    )
    (pin "1" (uuid 83d7ff2c-eaed-436f-8098-6e5fe7f8d9da))
  )

  (symbol (lib_id "power:GND") (at 55.88 106.68 270) (unit 1)
    (in_bom yes) (on_board yes)
    (uuid 7d5c2367-d0b2-4849-a8c1-555cfae1e46b)
    (property "Reference" "#PWR0106" (id 0) (at 49.53 106.68 0)
      (effects (font (size 1.27 1.27)) hide)
    )
    (property "Value" "GND" (id 1) (at 48.26 106.68 90)
      (effects (font (size 1.27 1.27)) (justify left))
    )
    (property "Footprint" "" (id 2) (at 55.88 106.68 0)
      (effects (font (size 1.27 1.27)) hide)
    )
    (property "Datasheet" "" (id 3) (at 55.88 106.68 0)
      (effects (font (size 1.27 1.27)) hide)
    )
    (pin "1" (uuid f02b8e7b-958b-4b10-ae95-94f3a8ee466f))
  )

  (symbol (lib_id "Device:C") (at 31.75 96.52 90) (unit 1)
    (in_bom yes) (on_board yes) (fields_autoplaced)
    (uuid 8b5278c6-fe61-47f0-9429-17200a7ef238)
    (property "Reference" "C1" (id 0) (at 30.9153 93.599 0)
      (effects (font (size 1.27 1.27)) (justify left))
    )
    (property "Value" "C" (id 1) (at 33.4522 93.599 0)
      (effects (font (size 1.27 1.27)) (justify left))
    )
    (property "Footprint" "Capacitor_SMD:C_0603_1608Metric" (id 2) (at 35.56 95.5548 0)
      (effects (font (size 1.27 1.27)) hide)
    )
    (property "Datasheet" "~" (id 3) (at 31.75 96.52 0)
      (effects (font (size 1.27 1.27)) hide)
    )
    (pin "1" (uuid e1b0a6ba-e5cb-428f-9c16-a267bbea0c6e))
    (pin "2" (uuid 02953f58-3035-462d-bc18-828efcbc4894))
  )

  (symbol (lib_id "power:GND") (at 64.77 114.3 0) (unit 1)
    (in_bom yes) (on_board yes) (fields_autoplaced)
    (uuid 8dda4f84-24b5-4d50-b602-741f41dbc2e6)
    (property "Reference" "#PWR0104" (id 0) (at 64.77 120.65 0)
      (effects (font (size 1.27 1.27)) hide)
    )
    (property "Value" "GND" (id 1) (at 66.675 116.0038 0)
      (effects (font (size 1.27 1.27)) (justify left))
    )
    (property "Footprint" "" (id 2) (at 64.77 114.3 0)
      (effects (font (size 1.27 1.27)) hide)
    )
    (property "Datasheet" "" (id 3) (at 64.77 114.3 0)
      (effects (font (size 1.27 1.27)) hide)
    )
    (pin "1" (uuid ddddb13e-9d70-4d76-82ff-684f6138b247))
  )

  (symbol (lib_id "Device:C") (at 97.79 105.41 0) (unit 1)
    (in_bom yes) (on_board yes) (fields_autoplaced)
    (uuid 906e449b-99e4-4e69-b814-c07cac3808c5)
    (property "Reference" "C3" (id 0) (at 100.711 104.5753 0)
      (effects (font (size 1.27 1.27)) (justify left))
    )
    (property "Value" "C" (id 1) (at 100.711 107.1122 0)
      (effects (font (size 1.27 1.27)) (justify left))
    )
    (property "Footprint" "Capacitor_SMD:C_0603_1608Metric" (id 2) (at 98.7552 109.22 0)
      (effects (font (size 1.27 1.27)) hide)
    )
    (property "Datasheet" "~" (id 3) (at 97.79 105.41 0)
      (effects (font (size 1.27 1.27)) hide)
    )
    (pin "1" (uuid 13954d17-cdac-485f-b038-c015864c37a3))
    (pin "2" (uuid bbdbd3b8-892b-43a0-9679-3c3005daa9f4))
  )

  (symbol (lib_id "Connector:TestPoint") (at 73.66 137.16 180) (unit 1)
    (in_bom yes) (on_board yes) (fields_autoplaced)
    (uuid 965be42f-e1be-46a1-90a6-6700e1e6acaf)
    (property "Reference" "TP2" (id 0) (at 75.057 139.6273 0)
      (effects (font (size 1.27 1.27)) (justify right))
    )
    (property "Value" "TestPoint" (id 1) (at 75.057 142.1642 0)
      (effects (font (size 1.27 1.27)) (justify right))
    )
    (property "Footprint" "TestPoint:TestPoint_Pad_1.0x1.0mm" (id 2) (at 68.58 137.16 0)
      (effects (font (size 1.27 1.27)) hide)
    )
    (property "Datasheet" "~" (id 3) (at 68.58 137.16 0)
      (effects (font (size 1.27 1.27)) hide)
    )
    (pin "1" (uuid d294114e-a06f-4234-b0ce-c90550a50984))
  )

  (symbol (lib_id "power:GND") (at 97.79 109.22 0) (unit 1)
    (in_bom yes) (on_board yes) (fields_autoplaced)
    (uuid b314d8ee-61d6-4315-8b10-8077e1ddccad)
    (property "Reference" "#PWR0103" (id 0) (at 97.79 115.57 0)
      (effects (font (size 1.27 1.27)) hide)
    )
    (property "Value" "GND" (id 1) (at 99.695 110.9238 0)
      (effects (font (size 1.27 1.27)) (justify left))
    )
    (property "Footprint" "" (id 2) (at 97.79 109.22 0)
      (effects (font (size 1.27 1.27)) hide)
    )
    (property "Datasheet" "" (id 3) (at 97.79 109.22 0)
      (effects (font (size 1.27 1.27)) hide)
    )
    (pin "1" (uuid 4180eebb-c269-409b-9767-d095d678d44d))
  )

  (symbol (lib_id "Device:R") (at 73.66 133.35 0) (unit 1)
    (in_bom yes) (on_board yes) (fields_autoplaced)
    (uuid bd7b1722-c833-4e33-b870-691e2b97b5a6)
    (property "Reference" "R3" (id 0) (at 75.438 132.5153 0)
      (effects (font (size 1.27 1.27)) (justify left))
    )
    (property "Value" "R" (id 1) (at 75.438 135.0522 0)
      (effects (font (size 1.27 1.27)) (justify left))
    )
    (property "Footprint" "Resistor_SMD:R_0402_1005Metric_Pad0.72x0.64mm_HandSolder" (id 2) (at 71.882 133.35 90)
      (effects (font (size 1.27 1.27)) hide)
    )
    (property "Datasheet" "~" (id 3) (at 73.66 133.35 0)
      (effects (font (size 1.27 1.27)) hide)
    )
    (pin "1" (uuid 7ac8e9f5-ec68-4f16-a0b3-3ca07835c83b))
    (pin "2" (uuid 1c8b14c2-bdd0-4dab-9917-a2f0f977e828))
  )

  (symbol (lib_id "Device:R") (at 68.58 125.73 0) (unit 1)
    (in_bom yes) (on_board yes) (fields_autoplaced)
    (uuid c5457836-af6c-4329-9b1b-c12e64951717)
    (property "Reference" "R1" (id 0) (at 70.358 124.8953 0)
      (effects (font (size 1.27 1.27)) (justify left))
    )
    (property "Value" "R" (id 1) (at 70.358 127.4322 0)
      (effects (font (size 1.27 1.27)) (justify left))
    )
    (property "Footprint" "Resistor_SMD:R_0402_1005Metric_Pad0.72x0.64mm_HandSolder" (id 2) (at 66.802 125.73 90)
      (effects (font (size 1.27 1.27)) hide)
    )
    (property "Datasheet" "~" (id 3) (at 68.58 125.73 0)
      (effects (font (size 1.27 1.27)) hide)
    )
    (pin "1" (uuid 32d41dab-53b8-4ac3-a9d1-51ae72398244))
    (pin "2" (uuid 1f7c5d04-c0ab-4e79-bee2-e7b3fa58e5af))
  )

  (symbol (lib_id "Device:R") (at 73.66 125.73 0) (unit 1)
    (in_bom yes) (on_board yes) (fields_autoplaced)
    (uuid c84a2ade-967e-4020-8627-7d9b2235b32c)
    (property "Reference" "R2" (id 0) (at 75.438 124.8953 0)
      (effects (font (size 1.27 1.27)) (justify left))
    )
    (property "Value" "R" (id 1) (at 75.438 127.4322 0)
      (effects (font (size 1.27 1.27)) (justify left))
    )
    (property "Footprint" "Resistor_SMD:R_0402_1005Metric_Pad0.72x0.64mm_HandSolder" (id 2) (at 71.882 125.73 90)
      (effects (font (size 1.27 1.27)) hide)
    )
    (property "Datasheet" "~" (id 3) (at 73.66 125.73 0)
      (effects (font (size 1.27 1.27)) hide)
    )
    (pin "1" (uuid 759aa470-e0d4-4ec5-8deb-f002527ea965))
    (pin "2" (uuid 032a7cf3-80c4-4baf-9244-803567bbc76d))
  )

  (symbol (lib_id "pspice:INDUCTOR") (at 82.55 104.14 90) (unit 1)
    (in_bom yes) (on_board yes) (fields_autoplaced)
    (uuid db9d885b-95c5-4cc1-b4a0-9ad13cbc176a)
    (property "Reference" "L1" (id 0) (at 83.185 103.3053 90)
      (effects (font (size 1.27 1.27)) (justify right))
    )
    (property "Value" "INDUCTOR" (id 1) (at 83.185 105.8422 90)
      (effects (font (size 1.27 1.27)) (justify right))
    )
    (property "Footprint" "Inductor_SMD:L_0805_2012Metric_Pad1.15x1.40mm_HandSolder" (id 2) (at 82.55 104.14 0)
      (effects (font (size 1.27 1.27)) hide)
    )
    (property "Datasheet" "~" (id 3) (at 82.55 104.14 0)
      (effects (font (size 1.27 1.27)) hide)
    )
    (pin "1" (uuid 71b410d6-c210-4c1c-b03f-f1c483f07579))
    (pin "2" (uuid 49d03ed3-be31-4cbc-8873-922632494951))
  )

  (symbol (lib_id "Connector:Conn_01x02_Female") (at 35.56 113.03 0) (unit 1)
    (in_bom yes) (on_board yes) (fields_autoplaced)
    (uuid ee52ed95-80a9-49e4-8fae-289bfe2e8c11)
    (property "Reference" "J1" (id 0) (at 35.7597 116.7892 90)
      (effects (font (size 1.27 1.27)) (justify right))
    )
    (property "Value" "Conn_01x02_Female" (id 1) (at 33.2228 116.7892 90)
      (effects (font (size 1.27 1.27)) (justify right))
    )
    (property "Footprint" "Connector_PinHeader_1.00mm:PinHeader_1x02_P1.00mm_Vertical" (id 2) (at 35.56 113.03 0)
      (effects (font (size 1.27 1.27)) hide)
    )
    (property "Datasheet" "~" (id 3) (at 35.56 113.03 0)
      (effects (font (size 1.27 1.27)) hide)
    )
    (pin "1" (uuid 668fe4bd-0980-423a-b5e6-8a2f5302b913))
    (pin "2" (uuid 38a110e7-d380-4461-9339-4d04f5a5fb6a))
  )

  (sheet_instances
    (path "/" (page "1"))
  )

  (symbol_instances
    (path "/67add77a-5f1d-4824-b4e3-3eac7079740a"
      (reference "#PWR0102") (unit 1) (value "GND") (footprint "")
    )
    (path "/b314d8ee-61d6-4315-8b10-8077e1ddccad"
      (reference "#PWR0103") (unit 1) (value "GND") (footprint "")
    )
    (path "/8dda4f84-24b5-4d50-b602-741f41dbc2e6"
      (reference "#PWR0104") (unit 1) (value "GND") (footprint "")
    )
    (path "/7d5c2367-d0b2-4849-a8c1-555cfae1e46b"
      (reference "#PWR0106") (unit 1) (value "GND") (footprint "")
    )
    (path "/70439a5e-0a34-4db6-8a92-805343e6b040"
      (reference "#PWR0107") (unit 1) (value "GND") (footprint "")
    )
    (path "/8b5278c6-fe61-47f0-9429-17200a7ef238"
      (reference "C1") (unit 1) (value "C") (footprint "Capacitor_SMD:C_0603_1608Metric")
    )
    (path "/695fbcdd-6d45-46b6-a550-3c17d01f8cdd"
      (reference "C2") (unit 1) (value "C") (footprint "Capacitor_SMD:C_0603_1608Metric")
    )
    (path "/906e449b-99e4-4e69-b814-c07cac3808c5"
      (reference "C3") (unit 1) (value "C") (footprint "Capacitor_SMD:C_0603_1608Metric")
    )
    (path "/ee52ed95-80a9-49e4-8fae-289bfe2e8c11"
      (reference "J1") (unit 1) (value "Conn_01x02_Female") (footprint "Connector_PinHeader_1.00mm:PinHeader_1x02_P1.00mm_Vertical")
    )
    (path "/db9d885b-95c5-4cc1-b4a0-9ad13cbc176a"
      (reference "L1") (unit 1) (value "INDUCTOR") (footprint "Inductor_SMD:L_0805_2012Metric_Pad1.15x1.40mm_HandSolder")
    )
    (path "/c5457836-af6c-4329-9b1b-c12e64951717"
      (reference "R1") (unit 1) (value "R") (footprint "Resistor_SMD:R_0402_1005Metric_Pad0.72x0.64mm_HandSolder")
    )
    (path "/c84a2ade-967e-4020-8627-7d9b2235b32c"
      (reference "R2") (unit 1) (value "R") (footprint "Resistor_SMD:R_0402_1005Metric_Pad0.72x0.64mm_HandSolder")
    )
    (path "/bd7b1722-c833-4e33-b870-691e2b97b5a6"
      (reference "R3") (unit 1) (value "R") (footprint "Resistor_SMD:R_0402_1005Metric_Pad0.72x0.64mm_HandSolder")
    )
    (path "/6393e57a-20c5-42f9-b226-1370f05215c1"
      (reference "R4") (unit 1) (value "R") (footprint "Resistor_SMD:R_0402_1005Metric_Pad0.72x0.64mm_HandSolder")
    )
    (path "/0b49dba8-b49e-47b3-8622-f9ef81397c48"
      (reference "TP1") (unit 1) (value "TestPoint") (footprint "TestPoint:TestPoint_Pad_1.0x1.0mm")
    )
    (path "/965be42f-e1be-46a1-90a6-6700e1e6acaf"
      (reference "TP2") (unit 1) (value "TestPoint") (footprint "TestPoint:TestPoint_Pad_1.0x1.0mm")
    )
    (path "/2c2b4b24-1dfe-4ea1-aefb-0f2c31ca3d81"
      (reference "U1") (unit 1) (value "TPS62234") (footprint "watch:USON-6-1.5x1mm-P0.5mm")
    )
  )
)
