%TF.GenerationSoftware,KiCad,Pcbnew,6.0.9*%
%TF.CreationDate,2022-12-30T21:12:28+01:00*%
%TF.ProjectId,watch,77617463-682e-46b6-9963-61645f706362,rev?*%
%TF.SameCoordinates,Original*%
%TF.FileFunction,Drillmap*%
%TF.FilePolarity,Positive*%
%FSLAX45Y45*%
G04 Gerber Fmt 4.5, Leading zero omitted, Abs format (unit mm)*
G04 Created by KiCad (PCBNEW 6.0.9) date 2022-12-30 21:12:28*
%MOMM*%
%LPD*%
G01*
G04 APERTURE LIST*
%ADD10C,0.100000*%
%ADD11C,0.200000*%
%ADD12C,0.020000*%
%ADD13C,0.030000*%
%ADD14C,0.040000*%
%ADD15C,0.050000*%
%ADD16C,0.053000*%
%ADD17C,0.085000*%
%ADD18C,0.095000*%
G04 APERTURE END LIST*
D10*
X470000Y-1350000D02*
G75*
G03*
X390000Y-1430000I0J-80000D01*
G01*
X390000Y-1430000D02*
X390000Y-1500000D01*
X630000Y-1350000D02*
X470000Y-1350000D01*
X-1160000Y1695000D02*
X-1160000Y1580000D01*
X390000Y-1500000D02*
X-1600000Y-1500000D01*
X1600000Y-1500000D02*
X710000Y-1500000D01*
X-1600000Y1500000D02*
X-1500000Y1500000D01*
X-1420000Y1580000D02*
X-1420000Y1695000D01*
X710000Y-1500000D02*
X710000Y-1430000D01*
X-1420000Y1695000D02*
X-1160000Y1695000D01*
X710000Y-1430000D02*
G75*
G03*
X630000Y-1350000I-80000J0D01*
G01*
X-1600000Y1500000D02*
X-1600000Y-1500000D01*
X1600000Y1500000D02*
X-1080000Y1500000D01*
X-1160000Y1580000D02*
G75*
G03*
X-1080000Y1500000I80000J0D01*
G01*
X-1500000Y1500000D02*
G75*
G03*
X-1420000Y1580000I0J80000D01*
G01*
X1600000Y-1500000D02*
X1600000Y1500000D01*
D11*
D12*
X-1549000Y-1395000D02*
X-1529000Y-1415000D01*
X-1529000Y-1395000D02*
X-1549000Y-1415000D01*
X-1548000Y685000D02*
X-1528000Y665000D01*
X-1528000Y685000D02*
X-1548000Y665000D01*
X-1540000Y871000D02*
X-1520000Y851000D01*
X-1520000Y871000D02*
X-1540000Y851000D01*
X-1530000Y772500D02*
X-1510000Y752500D01*
X-1510000Y772500D02*
X-1530000Y752500D01*
X-1527000Y555000D02*
X-1507000Y535000D01*
X-1507000Y555000D02*
X-1527000Y535000D01*
X-1524580Y1001522D02*
X-1504580Y981522D01*
X-1504580Y1001522D02*
X-1524580Y981522D01*
X-1505027Y824793D02*
X-1485027Y804793D01*
X-1485027Y824793D02*
X-1505027Y804793D01*
X-1497500Y720000D02*
X-1477500Y700000D01*
X-1477500Y720000D02*
X-1497500Y700000D01*
X-1492000Y920000D02*
X-1472000Y900000D01*
X-1472000Y920000D02*
X-1492000Y900000D01*
X-1478000Y1367000D02*
X-1458000Y1347000D01*
X-1458000Y1367000D02*
X-1478000Y1347000D01*
X-1475000Y1077500D02*
X-1455000Y1057500D01*
X-1455000Y1077500D02*
X-1475000Y1057500D01*
X-1403500Y-925000D02*
X-1383500Y-945000D01*
X-1383500Y-925000D02*
X-1403500Y-945000D01*
X-1398000Y-996550D02*
X-1378000Y-1016550D01*
X-1378000Y-996550D02*
X-1398000Y-1016550D01*
X-1396000Y1088000D02*
X-1376000Y1068000D01*
X-1376000Y1088000D02*
X-1396000Y1068000D01*
X-1325000Y451000D02*
X-1305000Y431000D01*
X-1305000Y451000D02*
X-1325000Y431000D01*
X-1272000Y1299000D02*
X-1252000Y1279000D01*
X-1252000Y1299000D02*
X-1272000Y1279000D01*
X-1242500Y1181800D02*
X-1222500Y1161800D01*
X-1222500Y1181800D02*
X-1242500Y1161800D01*
X-1211500Y1524500D02*
X-1191500Y1504500D01*
X-1191500Y1524500D02*
X-1211500Y1504500D01*
X-1190000Y-251000D02*
X-1170000Y-271000D01*
X-1170000Y-251000D02*
X-1190000Y-271000D01*
X-1167500Y1262500D02*
X-1147500Y1242500D01*
X-1147500Y1262500D02*
X-1167500Y1242500D01*
X-1146416Y438950D02*
X-1126416Y418950D01*
X-1126416Y438950D02*
X-1146416Y418950D01*
X-1111500Y1369500D02*
X-1091500Y1349500D01*
X-1091500Y1369500D02*
X-1111500Y1349500D01*
X-1092000Y-6000D02*
X-1072000Y-26000D01*
X-1072000Y-6000D02*
X-1092000Y-26000D01*
X-1088000Y-66000D02*
X-1068000Y-86000D01*
X-1068000Y-66000D02*
X-1088000Y-86000D01*
X-1085000Y1215000D02*
X-1065000Y1195000D01*
X-1065000Y1215000D02*
X-1085000Y1195000D01*
X-1082000Y447000D02*
X-1062000Y427000D01*
X-1062000Y447000D02*
X-1082000Y427000D01*
X-1063000Y45000D02*
X-1043000Y25000D01*
X-1043000Y45000D02*
X-1063000Y25000D01*
X-1050000Y-115000D02*
X-1030000Y-135000D01*
X-1030000Y-115000D02*
X-1050000Y-135000D01*
X-1050000Y-173000D02*
X-1030000Y-193000D01*
X-1030000Y-173000D02*
X-1050000Y-193000D01*
X-1050000Y-229000D02*
X-1030000Y-249000D01*
X-1030000Y-229000D02*
X-1050000Y-249000D01*
X-1037000Y1442000D02*
X-1017000Y1422000D01*
X-1017000Y1442000D02*
X-1037000Y1422000D01*
X-1012500Y447500D02*
X-992500Y427500D01*
X-992500Y447500D02*
X-1012500Y427500D01*
X-1011000Y73000D02*
X-991000Y53000D01*
X-991000Y73000D02*
X-1011000Y53000D01*
X-1000000Y-262000D02*
X-980000Y-282000D01*
X-980000Y-262000D02*
X-1000000Y-282000D01*
X-989000Y1179000D02*
X-969000Y1159000D01*
X-969000Y1179000D02*
X-989000Y1159000D01*
X-959000Y423000D02*
X-939000Y403000D01*
X-939000Y423000D02*
X-959000Y403000D01*
X-952000Y68000D02*
X-932000Y48000D01*
X-932000Y68000D02*
X-952000Y48000D01*
X-946000Y-1359000D02*
X-926000Y-1379000D01*
X-926000Y-1359000D02*
X-946000Y-1379000D01*
X-937000Y-255000D02*
X-917000Y-275000D01*
X-917000Y-255000D02*
X-937000Y-275000D01*
X-934550Y-935500D02*
X-914550Y-955500D01*
X-914550Y-935500D02*
X-934550Y-955500D01*
X-930000Y-135000D02*
X-910000Y-155000D01*
X-910000Y-135000D02*
X-930000Y-155000D01*
X-930000Y-195000D02*
X-910000Y-215000D01*
X-910000Y-195000D02*
X-930000Y-215000D01*
X-906000Y143000D02*
X-886000Y123000D01*
X-886000Y143000D02*
X-906000Y123000D01*
X-905500Y33500D02*
X-885500Y13500D01*
X-885500Y33500D02*
X-905500Y13500D01*
X-900000Y-82500D02*
X-880000Y-102500D01*
X-880000Y-82500D02*
X-900000Y-102500D01*
X-885000Y-22000D02*
X-865000Y-42000D01*
X-865000Y-22000D02*
X-885000Y-42000D01*
X-851332Y522256D02*
X-831332Y502256D01*
X-831332Y522256D02*
X-851332Y502256D01*
X-832000Y-633000D02*
X-812000Y-653000D01*
X-812000Y-633000D02*
X-832000Y-653000D01*
X-812000Y61000D02*
X-792000Y41000D01*
X-792000Y61000D02*
X-812000Y41000D01*
X-786000Y870000D02*
X-766000Y850000D01*
X-766000Y870000D02*
X-786000Y850000D01*
X-783000Y770000D02*
X-763000Y750000D01*
X-763000Y770000D02*
X-783000Y750000D01*
X-781000Y670000D02*
X-761000Y650000D01*
X-761000Y670000D02*
X-781000Y650000D01*
X-778000Y970000D02*
X-758000Y950000D01*
X-758000Y970000D02*
X-778000Y950000D01*
X-766000Y612500D02*
X-746000Y592500D01*
X-746000Y612500D02*
X-766000Y592500D01*
X-764592Y352502D02*
X-744592Y332502D01*
X-744592Y352502D02*
X-764592Y332502D01*
X-762000Y-622000D02*
X-742000Y-642000D01*
X-742000Y-622000D02*
X-762000Y-642000D01*
X-758051Y-253830D02*
X-738051Y-273830D01*
X-738051Y-253830D02*
X-758051Y-273830D01*
X-743000Y720000D02*
X-723000Y700000D01*
X-723000Y720000D02*
X-743000Y700000D01*
X-733000Y-980000D02*
X-713000Y-1000000D01*
X-713000Y-980000D02*
X-733000Y-1000000D01*
X-723742Y812907D02*
X-703742Y792907D01*
X-703742Y812907D02*
X-723742Y792907D01*
X-720000Y921000D02*
X-700000Y901000D01*
X-700000Y921000D02*
X-720000Y901000D01*
X-688000Y-381000D02*
X-668000Y-401000D01*
X-668000Y-381000D02*
X-688000Y-401000D01*
X-638000Y-481000D02*
X-618000Y-501000D01*
X-618000Y-481000D02*
X-638000Y-501000D01*
X-631000Y48000D02*
X-611000Y28000D01*
X-611000Y48000D02*
X-631000Y28000D01*
X-630000Y114000D02*
X-610000Y94000D01*
X-610000Y114000D02*
X-630000Y94000D01*
X-621719Y-990506D02*
X-601719Y-1010506D01*
X-601719Y-990506D02*
X-621719Y-1010506D01*
X-593000Y-821500D02*
X-573000Y-841500D01*
X-573000Y-821500D02*
X-593000Y-841500D01*
X-502000Y-577500D02*
X-482000Y-597500D01*
X-482000Y-577500D02*
X-502000Y-597500D01*
X-457000Y1454000D02*
X-437000Y1434000D01*
X-437000Y1454000D02*
X-457000Y1434000D01*
X-447500Y42500D02*
X-427500Y22500D01*
X-427500Y42500D02*
X-447500Y22500D01*
X-445750Y-139250D02*
X-425750Y-159250D01*
X-425750Y-139250D02*
X-445750Y-159250D01*
X-439500Y-573000D02*
X-419500Y-593000D01*
X-419500Y-573000D02*
X-439500Y-593000D01*
X-427000Y1213000D02*
X-407000Y1193000D01*
X-407000Y1213000D02*
X-427000Y1193000D01*
X-394000Y-904000D02*
X-374000Y-924000D01*
X-374000Y-904000D02*
X-394000Y-924000D01*
X-387871Y-341411D02*
X-367871Y-361411D01*
X-367871Y-341411D02*
X-387871Y-361411D01*
X-365500Y-701000D02*
X-345500Y-721000D01*
X-345500Y-701000D02*
X-365500Y-721000D01*
X-325500Y-625500D02*
X-305500Y-645500D01*
X-305500Y-625500D02*
X-325500Y-645500D01*
X-321500Y-1084550D02*
X-301500Y-1104550D01*
X-301500Y-1084550D02*
X-321500Y-1104550D01*
X-281500Y-891500D02*
X-261500Y-911500D01*
X-261500Y-891500D02*
X-281500Y-911500D01*
X-257000Y1451000D02*
X-237000Y1431000D01*
X-237000Y1451000D02*
X-257000Y1431000D01*
X-227500Y-263000D02*
X-207500Y-283000D01*
X-207500Y-263000D02*
X-227500Y-283000D01*
X-227440Y1100950D02*
X-207440Y1080950D01*
X-207440Y1100950D02*
X-227440Y1080950D01*
X-227000Y61000D02*
X-207000Y41000D01*
X-207000Y61000D02*
X-227000Y41000D01*
X-225000Y-1108000D02*
X-205000Y-1128000D01*
X-205000Y-1108000D02*
X-225000Y-1128000D01*
X-192000Y1199000D02*
X-172000Y1179000D01*
X-172000Y1199000D02*
X-192000Y1179000D01*
X-185000Y116000D02*
X-165000Y96000D01*
X-165000Y116000D02*
X-185000Y96000D01*
X-180000Y228000D02*
X-160000Y208000D01*
X-160000Y228000D02*
X-180000Y208000D01*
X-179000Y-82500D02*
X-159000Y-102500D01*
X-159000Y-82500D02*
X-179000Y-102500D01*
X-167000Y-1227500D02*
X-147000Y-1247500D01*
X-147000Y-1227500D02*
X-167000Y-1247500D01*
X-164000Y-1364000D02*
X-144000Y-1384000D01*
X-144000Y-1364000D02*
X-164000Y-1384000D01*
X-134000Y-812000D02*
X-114000Y-832000D01*
X-114000Y-812000D02*
X-134000Y-832000D01*
X-131000Y-504000D02*
X-111000Y-524000D01*
X-111000Y-504000D02*
X-131000Y-524000D01*
X-125000Y-327500D02*
X-105000Y-347500D01*
X-105000Y-327500D02*
X-125000Y-347500D01*
X-110000Y-920000D02*
X-90000Y-940000D01*
X-90000Y-920000D02*
X-110000Y-940000D01*
X-76700Y-791800D02*
X-56700Y-811800D01*
X-56700Y-791800D02*
X-76700Y-811800D01*
X-34000Y228000D02*
X-14000Y208000D01*
X-14000Y228000D02*
X-34000Y208000D01*
X-25000Y-35000D02*
X-5000Y-55000D01*
X-5000Y-35000D02*
X-25000Y-55000D01*
X-15322Y-567661D02*
X4678Y-587661D01*
X4678Y-567661D02*
X-15322Y-587661D01*
X25000Y-612500D02*
X45000Y-632500D01*
X45000Y-612500D02*
X25000Y-632500D01*
X32500Y-1107000D02*
X52500Y-1127000D01*
X52500Y-1107000D02*
X32500Y-1127000D01*
X59000Y-889000D02*
X79000Y-909000D01*
X79000Y-889000D02*
X59000Y-909000D01*
X96000Y-1272000D02*
X116000Y-1292000D01*
X116000Y-1272000D02*
X96000Y-1292000D01*
X116000Y413000D02*
X136000Y393000D01*
X136000Y413000D02*
X116000Y393000D01*
X148000Y-1314000D02*
X168000Y-1334000D01*
X168000Y-1314000D02*
X148000Y-1334000D01*
X152500Y-257500D02*
X172500Y-277500D01*
X172500Y-257500D02*
X152500Y-277500D01*
X180500Y-1005000D02*
X200500Y-1025000D01*
X200500Y-1005000D02*
X180500Y-1025000D01*
X215000Y121000D02*
X235000Y101000D01*
X235000Y121000D02*
X215000Y101000D01*
X221000Y55000D02*
X241000Y35000D01*
X241000Y55000D02*
X221000Y35000D01*
X284000Y58000D02*
X304000Y38000D01*
X304000Y58000D02*
X284000Y38000D01*
X290000Y-647000D02*
X310000Y-667000D01*
X310000Y-647000D02*
X290000Y-667000D01*
X293500Y-939500D02*
X313500Y-959500D01*
X313500Y-939500D02*
X293500Y-959500D01*
X303000Y-66000D02*
X323000Y-86000D01*
X323000Y-66000D02*
X303000Y-86000D01*
X345000Y-1110000D02*
X365000Y-1130000D01*
X365000Y-1110000D02*
X345000Y-1130000D01*
X347000Y-633000D02*
X367000Y-653000D01*
X367000Y-633000D02*
X347000Y-653000D01*
X352600Y-949900D02*
X372600Y-969900D01*
X372600Y-949900D02*
X352600Y-969900D01*
X387000Y111000D02*
X407000Y91000D01*
X407000Y111000D02*
X387000Y91000D01*
X408250Y-654250D02*
X428250Y-674250D01*
X428250Y-654250D02*
X408250Y-674250D01*
X422500Y-265000D02*
X442500Y-285000D01*
X442500Y-265000D02*
X422500Y-285000D01*
X434000Y170000D02*
X454000Y150000D01*
X454000Y170000D02*
X434000Y150000D01*
X490000Y155000D02*
X510000Y135000D01*
X510000Y155000D02*
X490000Y135000D01*
X497500Y-27500D02*
X517500Y-47500D01*
X517500Y-27500D02*
X497500Y-47500D01*
X534865Y-758050D02*
X554865Y-778050D01*
X554865Y-758050D02*
X534865Y-778050D01*
X547500Y240000D02*
X567500Y220000D01*
X567500Y240000D02*
X547500Y220000D01*
X605000Y-85000D02*
X625000Y-105000D01*
X625000Y-85000D02*
X605000Y-105000D01*
X620000Y-580000D02*
X640000Y-600000D01*
X640000Y-580000D02*
X620000Y-600000D01*
X630000Y-310000D02*
X650000Y-330000D01*
X650000Y-310000D02*
X630000Y-330000D01*
X660000Y25000D02*
X680000Y5000D01*
X680000Y25000D02*
X660000Y5000D01*
X693700Y-857300D02*
X713700Y-877300D01*
X713700Y-857300D02*
X693700Y-877300D01*
X718250Y-1127250D02*
X738250Y-1147250D01*
X738250Y-1127250D02*
X718250Y-1147250D01*
X735000Y-22500D02*
X755000Y-42500D01*
X755000Y-22500D02*
X735000Y-42500D01*
X795000Y-27500D02*
X815000Y-47500D01*
X815000Y-27500D02*
X795000Y-47500D01*
X802500Y112500D02*
X822500Y92500D01*
X822500Y112500D02*
X802500Y92500D01*
X815000Y-162500D02*
X835000Y-182500D01*
X835000Y-162500D02*
X815000Y-182500D01*
X884000Y-788000D02*
X904000Y-808000D01*
X904000Y-788000D02*
X884000Y-808000D01*
X907000Y9000D02*
X927000Y-11000D01*
X927000Y9000D02*
X907000Y-11000D01*
X916087Y208924D02*
X936087Y188924D01*
X936087Y208924D02*
X916087Y188924D01*
X926000Y1129800D02*
X946000Y1109800D01*
X946000Y1129800D02*
X926000Y1109800D01*
X933000Y1212200D02*
X953000Y1192200D01*
X953000Y1212200D02*
X933000Y1192200D01*
X963163Y151024D02*
X983163Y131024D01*
X983163Y151024D02*
X963163Y131024D01*
X965000Y240000D02*
X985000Y220000D01*
X985000Y240000D02*
X965000Y220000D01*
X973000Y-557000D02*
X993000Y-577000D01*
X993000Y-557000D02*
X973000Y-577000D01*
X980000Y-180000D02*
X1000000Y-200000D01*
X1000000Y-180000D02*
X980000Y-200000D01*
X1015080Y-786420D02*
X1035080Y-806420D01*
X1035080Y-786420D02*
X1015080Y-806420D01*
X1020483Y221862D02*
X1040483Y201862D01*
X1040483Y221862D02*
X1020483Y201862D01*
X1021500Y-281000D02*
X1041500Y-301000D01*
X1041500Y-281000D02*
X1021500Y-301000D01*
X1041500Y618000D02*
X1061500Y598000D01*
X1061500Y618000D02*
X1041500Y598000D01*
X1062150Y1073150D02*
X1082150Y1053150D01*
X1082150Y1073150D02*
X1062150Y1053150D01*
X1117000Y-275000D02*
X1137000Y-295000D01*
X1137000Y-275000D02*
X1117000Y-295000D01*
X1166100Y-237400D02*
X1186100Y-257400D01*
X1186100Y-237400D02*
X1166100Y-257400D01*
X1177500Y165000D02*
X1197500Y145000D01*
X1197500Y165000D02*
X1177500Y145000D01*
X1195000Y-1141000D02*
X1215000Y-1161000D01*
X1215000Y-1141000D02*
X1195000Y-1161000D01*
X1230000Y135000D02*
X1250000Y115000D01*
X1250000Y135000D02*
X1230000Y115000D01*
X1241374Y-172950D02*
X1261374Y-192950D01*
X1261374Y-172950D02*
X1241374Y-192950D01*
X1279000Y243050D02*
X1299000Y223050D01*
X1299000Y243050D02*
X1279000Y223050D01*
X1304000Y-212000D02*
X1324000Y-232000D01*
X1324000Y-212000D02*
X1304000Y-232000D01*
X1384000Y-1054000D02*
X1404000Y-1074000D01*
X1404000Y-1054000D02*
X1384000Y-1074000D01*
X1462000Y-149000D02*
X1482000Y-169000D01*
X1482000Y-149000D02*
X1462000Y-169000D01*
X1480000Y170000D02*
X1500000Y150000D01*
X1500000Y170000D02*
X1480000Y150000D01*
X1487061Y-20500D02*
X1507061Y-40500D01*
X1507061Y-20500D02*
X1487061Y-40500D01*
X1500000Y-327000D02*
X1520000Y-347000D01*
X1520000Y-327000D02*
X1500000Y-347000D01*
D13*
X-850500Y1073050D02*
G75*
G03*
X-850500Y1073050I-15000J0D01*
G01*
D14*
X-1229000Y-560000D02*
X-1229000Y-600000D01*
X-1249000Y-580000D02*
X-1209000Y-580000D01*
X-1095000Y-427500D02*
X-1095000Y-467500D01*
X-1115000Y-447500D02*
X-1075000Y-447500D01*
X-1032000Y-763000D02*
X-1032000Y-803000D01*
X-1052000Y-783000D02*
X-1012000Y-783000D01*
X-1009500Y-1362050D02*
X-1009500Y-1402050D01*
X-1029500Y-1382050D02*
X-989500Y-1382050D01*
X-885000Y-526500D02*
X-885000Y-566500D01*
X-905000Y-546500D02*
X-865000Y-546500D01*
X-725500Y1334500D02*
X-725500Y1294500D01*
X-745500Y1314500D02*
X-705500Y1314500D01*
X-686510Y288000D02*
X-686510Y248000D01*
X-706510Y268000D02*
X-666510Y268000D01*
X-462300Y537300D02*
X-462300Y497300D01*
X-482300Y517300D02*
X-442300Y517300D01*
X-394239Y607739D02*
X-394239Y567739D01*
X-414239Y587739D02*
X-374239Y587739D01*
X-385550Y443000D02*
X-385550Y403000D01*
X-405550Y423000D02*
X-365550Y423000D01*
X-385550Y360050D02*
X-385550Y320050D01*
X-405550Y340050D02*
X-365550Y340050D01*
X-382000Y275450D02*
X-382000Y235450D01*
X-402000Y255450D02*
X-362000Y255450D01*
X-372050Y715000D02*
X-372050Y675000D01*
X-392050Y695000D02*
X-352050Y695000D01*
X-362950Y833000D02*
X-362950Y793000D01*
X-382950Y813000D02*
X-342950Y813000D01*
X-326300Y1099450D02*
X-326300Y1059450D01*
X-346300Y1079450D02*
X-306300Y1079450D01*
X-123760Y444760D02*
X-123760Y404760D01*
X-143760Y424760D02*
X-103760Y424760D01*
X-121000Y-392500D02*
X-121000Y-432500D01*
X-141000Y-412500D02*
X-101000Y-412500D01*
X-104550Y1101450D02*
X-104550Y1061450D01*
X-124550Y1081450D02*
X-84550Y1081450D01*
X-95563Y333550D02*
X-95563Y293550D01*
X-115563Y313550D02*
X-75563Y313550D01*
X32500Y-265000D02*
X32500Y-305000D01*
X12500Y-285000D02*
X52500Y-285000D01*
X98000Y-55000D02*
X98000Y-95000D01*
X78000Y-75000D02*
X118000Y-75000D01*
X110378Y123522D02*
X110378Y83522D01*
X90378Y103522D02*
X130378Y103522D01*
X131970Y271860D02*
X131970Y231860D01*
X111970Y251860D02*
X151970Y251860D01*
X133050Y-463550D02*
X133050Y-503550D01*
X113050Y-483550D02*
X153050Y-483550D01*
X162755Y1146755D02*
X162755Y1106755D01*
X142755Y1126755D02*
X182755Y1126755D01*
X178700Y1422800D02*
X178700Y1382800D01*
X158700Y1402800D02*
X198700Y1402800D01*
X203000Y-776500D02*
X203000Y-816500D01*
X183000Y-796500D02*
X223000Y-796500D01*
X266500Y-1098000D02*
X266500Y-1138000D01*
X246500Y-1118000D02*
X286500Y-1118000D01*
X272500Y197500D02*
X272500Y157500D01*
X252500Y177500D02*
X292500Y177500D01*
X275103Y-120902D02*
X275103Y-160902D01*
X255103Y-140902D02*
X295103Y-140902D01*
X287500Y-284550D02*
X287500Y-324550D01*
X267500Y-304550D02*
X307500Y-304550D01*
X377000Y1400000D02*
X377000Y1360000D01*
X357000Y1380000D02*
X397000Y1380000D01*
X386693Y-488039D02*
X386693Y-528039D01*
X366693Y-508039D02*
X406693Y-508039D01*
X387050Y380050D02*
X387050Y340050D01*
X367050Y360050D02*
X407050Y360050D01*
X493000Y-803500D02*
X493000Y-843500D01*
X473000Y-823500D02*
X513000Y-823500D01*
X604000Y-972000D02*
X604000Y-1012000D01*
X584000Y-992000D02*
X624000Y-992000D01*
X614000Y1249550D02*
X614000Y1209550D01*
X594000Y1229550D02*
X634000Y1229550D01*
X640080Y-489841D02*
X640080Y-529841D01*
X620080Y-509841D02*
X660080Y-509841D01*
X705725Y-265500D02*
X705725Y-305500D01*
X685725Y-285500D02*
X725725Y-285500D01*
X710000Y96650D02*
X710000Y56650D01*
X690000Y76650D02*
X730000Y76650D01*
X722000Y240550D02*
X722000Y200550D01*
X702000Y220550D02*
X742000Y220550D01*
X734766Y-105024D02*
X734766Y-145024D01*
X714766Y-125024D02*
X754766Y-125024D01*
X797000Y1178000D02*
X797000Y1138000D01*
X777000Y1158000D02*
X817000Y1158000D01*
X882500Y380000D02*
X882500Y340000D01*
X862500Y360000D02*
X902500Y360000D01*
X896900Y-297142D02*
X896900Y-337142D01*
X876900Y-317142D02*
X916900Y-317142D01*
X899453Y-389550D02*
X899453Y-429550D01*
X879453Y-409550D02*
X919453Y-409550D01*
X998924Y-1078363D02*
X998924Y-1118363D01*
X978924Y-1098363D02*
X1018924Y-1098363D01*
X1075000Y-521450D02*
X1075000Y-561450D01*
X1055000Y-541450D02*
X1095000Y-541450D01*
X1150950Y-355000D02*
X1150950Y-395000D01*
X1130950Y-375000D02*
X1170950Y-375000D01*
X1157169Y-510095D02*
X1157169Y-550095D01*
X1137169Y-530095D02*
X1177169Y-530095D01*
X1259500Y-521450D02*
X1259500Y-561450D01*
X1239500Y-541450D02*
X1279500Y-541450D01*
X1302500Y-935000D02*
X1302500Y-975000D01*
X1282500Y-955000D02*
X1322500Y-955000D01*
X1308000Y-1113000D02*
X1308000Y-1153000D01*
X1288000Y-1133000D02*
X1328000Y-1133000D01*
X1404950Y-421000D02*
X1404950Y-461000D01*
X1384950Y-441000D02*
X1424950Y-441000D01*
X1423500Y489000D02*
X1423500Y449000D01*
X1403500Y469000D02*
X1443500Y469000D01*
X1451000Y397500D02*
X1451000Y357500D01*
X1431000Y377500D02*
X1471000Y377500D01*
X1502345Y82440D02*
X1502345Y42440D01*
X1482345Y62440D02*
X1522345Y62440D01*
X1518000Y-81000D02*
X1518000Y-121000D01*
X1498000Y-101000D02*
X1538000Y-101000D01*
X1520000Y-902500D02*
X1520000Y-942500D01*
X1500000Y-922500D02*
X1540000Y-922500D01*
X1523000Y247000D02*
X1523000Y207000D01*
X1503000Y227000D02*
X1543000Y227000D01*
X1523000Y-244000D02*
X1523000Y-284000D01*
X1503000Y-264000D02*
X1543000Y-264000D01*
D15*
X-1329322Y1589822D02*
X-1329322Y1625178D01*
X-1364678Y1625178D01*
X-1364678Y1589822D01*
X-1329322Y1589822D01*
X-1229322Y1589822D02*
X-1229322Y1625178D01*
X-1264678Y1625178D01*
X-1264678Y1589822D01*
X-1229322Y1589822D01*
X-582322Y-1430178D02*
X-582322Y-1394822D01*
X-617678Y-1394822D01*
X-617678Y-1430178D01*
X-582322Y-1430178D01*
X-482322Y-1430178D02*
X-482322Y-1394822D01*
X-517678Y-1394822D01*
X-517678Y-1430178D01*
X-482322Y-1430178D01*
X519678Y-1274678D02*
X519678Y-1239322D01*
X484322Y-1239322D01*
X484322Y-1274678D01*
X519678Y-1274678D01*
X619678Y-1274678D02*
X619678Y-1239322D01*
X584322Y-1239322D01*
X584322Y-1274678D01*
X619678Y-1274678D01*
D16*
X-202500Y651000D02*
X-176000Y677500D01*
X-202500Y704000D01*
X-229000Y677500D01*
X-202500Y651000D01*
X-165000Y916000D02*
X-138500Y942500D01*
X-165000Y969000D01*
X-191500Y942500D01*
X-165000Y916000D01*
X-125000Y783500D02*
X-98500Y810000D01*
X-125000Y836500D01*
X-151500Y810000D01*
X-125000Y783500D01*
X-92500Y651000D02*
X-66000Y677500D01*
X-92500Y704000D01*
X-119000Y677500D01*
X-92500Y651000D01*
X-55000Y916000D02*
X-28500Y942500D01*
X-55000Y969000D01*
X-81500Y942500D01*
X-55000Y916000D01*
X-15000Y783500D02*
X11500Y810000D01*
X-15000Y836500D01*
X-41500Y810000D01*
X-15000Y783500D01*
X17500Y651000D02*
X44000Y677500D01*
X17500Y704000D01*
X-9000Y677500D01*
X17500Y651000D01*
X55000Y916000D02*
X81500Y942500D01*
X55000Y969000D01*
X28500Y942500D01*
X55000Y916000D01*
X95000Y783500D02*
X121500Y810000D01*
X95000Y836500D01*
X68500Y810000D01*
X95000Y783500D01*
X127500Y651000D02*
X154000Y677500D01*
X127500Y704000D01*
X101000Y677500D01*
X127500Y651000D01*
X165000Y916000D02*
X191500Y942500D01*
X165000Y969000D01*
X138500Y942500D01*
X165000Y916000D01*
X202500Y731000D02*
X229000Y757500D01*
X202500Y784000D01*
X176000Y757500D01*
X202500Y731000D01*
X240000Y836000D02*
X266500Y862500D01*
X240000Y889000D01*
X213500Y862500D01*
X240000Y836000D01*
X277500Y651000D02*
X304000Y677500D01*
X277500Y704000D01*
X251000Y677500D01*
X277500Y651000D01*
X315000Y916000D02*
X341500Y942500D01*
X315000Y969000D01*
X288500Y942500D01*
X315000Y916000D01*
X425000Y916000D02*
X451500Y942500D01*
X425000Y969000D01*
X398500Y942500D01*
X425000Y916000D01*
X462500Y651000D02*
X489000Y677500D01*
X462500Y704000D01*
X436000Y677500D01*
X462500Y651000D01*
X500000Y836000D02*
X526500Y862500D01*
X500000Y889000D01*
X473500Y862500D01*
X500000Y836000D01*
X537500Y731000D02*
X564000Y757500D01*
X537500Y784000D01*
X511000Y757500D01*
X537500Y731000D01*
X575000Y916000D02*
X601500Y942500D01*
X575000Y969000D01*
X548500Y942500D01*
X575000Y916000D01*
X612500Y651000D02*
X639000Y677500D01*
X612500Y704000D01*
X586000Y677500D01*
X612500Y651000D01*
X645000Y783500D02*
X671500Y810000D01*
X645000Y836500D01*
X618500Y810000D01*
X645000Y783500D01*
X685000Y916000D02*
X711500Y942500D01*
X685000Y969000D01*
X658500Y942500D01*
X685000Y916000D01*
X722500Y651000D02*
X749000Y677500D01*
X722500Y704000D01*
X696000Y677500D01*
X722500Y651000D01*
X755000Y783500D02*
X781500Y810000D01*
X755000Y836500D01*
X728500Y810000D01*
X755000Y783500D01*
X795000Y916000D02*
X821500Y942500D01*
X795000Y969000D01*
X768500Y942500D01*
X795000Y916000D01*
X832500Y651000D02*
X859000Y677500D01*
X832500Y704000D01*
X806000Y677500D01*
X832500Y651000D01*
X865000Y783500D02*
X891500Y810000D01*
X865000Y836500D01*
X838500Y810000D01*
X865000Y783500D01*
X905000Y916000D02*
X931500Y942500D01*
X905000Y969000D01*
X878500Y942500D01*
X905000Y916000D01*
X942500Y651000D02*
X969000Y677500D01*
X942500Y704000D01*
X916000Y677500D01*
X942500Y651000D01*
D17*
X-1022500Y2500D02*
X-937500Y-82500D01*
X-937500Y2500D02*
X-1022500Y-82500D01*
X-937500Y-40000D02*
G75*
G03*
X-937500Y-40000I-42500J0D01*
G01*
D18*
X-567500Y857500D02*
X-472500Y762500D01*
X-472500Y857500D02*
X-567500Y762500D01*
X-520000Y857500D02*
X-520000Y762500D01*
X-567500Y810000D02*
X-472500Y810000D01*
D11*
X-472500Y700000D02*
X-472500Y920000D01*
X-567500Y700000D02*
X-567500Y920000D01*
X-472500Y920000D02*
G75*
G03*
X-567500Y920000I-47500J0D01*
G01*
X-567500Y700000D02*
G75*
G03*
X-472500Y700000I47500J0D01*
G01*
D18*
X1212500Y857500D02*
X1307500Y762500D01*
X1307500Y857500D02*
X1212500Y762500D01*
X1260000Y857500D02*
X1260000Y762500D01*
X1212500Y810000D02*
X1307500Y810000D01*
D11*
X1307500Y700000D02*
X1307500Y920000D01*
X1212500Y700000D02*
X1212500Y920000D01*
X1307500Y920000D02*
G75*
G03*
X1212500Y920000I-47500J0D01*
G01*
X1212500Y700000D02*
G75*
G03*
X1307500Y700000I47500J0D01*
G01*
X-1347381Y-1815476D02*
X-1347381Y-1615476D01*
X-1299762Y-1615476D01*
X-1271190Y-1625000D01*
X-1252143Y-1644048D01*
X-1242619Y-1663095D01*
X-1233095Y-1701190D01*
X-1233095Y-1729762D01*
X-1242619Y-1767857D01*
X-1252143Y-1786905D01*
X-1271190Y-1805952D01*
X-1299762Y-1815476D01*
X-1347381Y-1815476D01*
X-1147381Y-1815476D02*
X-1147381Y-1682143D01*
X-1147381Y-1720238D02*
X-1137857Y-1701190D01*
X-1128333Y-1691667D01*
X-1109286Y-1682143D01*
X-1090238Y-1682143D01*
X-1023571Y-1815476D02*
X-1023571Y-1682143D01*
X-1023571Y-1615476D02*
X-1033095Y-1625000D01*
X-1023571Y-1634524D01*
X-1014048Y-1625000D01*
X-1023571Y-1615476D01*
X-1023571Y-1634524D01*
X-899762Y-1815476D02*
X-918809Y-1805952D01*
X-928333Y-1786905D01*
X-928333Y-1615476D01*
X-795000Y-1815476D02*
X-814048Y-1805952D01*
X-823571Y-1786905D01*
X-823571Y-1615476D01*
X-566429Y-1815476D02*
X-566429Y-1615476D01*
X-499762Y-1758333D01*
X-433095Y-1615476D01*
X-433095Y-1815476D01*
X-252143Y-1815476D02*
X-252143Y-1710714D01*
X-261667Y-1691667D01*
X-280714Y-1682143D01*
X-318810Y-1682143D01*
X-337857Y-1691667D01*
X-252143Y-1805952D02*
X-271190Y-1815476D01*
X-318810Y-1815476D01*
X-337857Y-1805952D01*
X-347381Y-1786905D01*
X-347381Y-1767857D01*
X-337857Y-1748809D01*
X-318810Y-1739286D01*
X-271190Y-1739286D01*
X-252143Y-1729762D01*
X-156905Y-1682143D02*
X-156905Y-1882143D01*
X-156905Y-1691667D02*
X-137857Y-1682143D01*
X-99762Y-1682143D01*
X-80714Y-1691667D01*
X-71190Y-1701190D01*
X-61667Y-1720238D01*
X-61667Y-1777381D01*
X-71190Y-1796428D01*
X-80714Y-1805952D01*
X-99762Y-1815476D01*
X-137857Y-1815476D01*
X-156905Y-1805952D01*
X24048Y-1796428D02*
X33571Y-1805952D01*
X24048Y-1815476D01*
X14524Y-1805952D01*
X24048Y-1796428D01*
X24048Y-1815476D01*
X24048Y-1691667D02*
X33571Y-1701190D01*
X24048Y-1710714D01*
X14524Y-1701190D01*
X24048Y-1691667D01*
X24048Y-1710714D01*
D12*
X-1625000Y-2135000D02*
X-1605000Y-2155000D01*
X-1605000Y-2135000D02*
X-1625000Y-2155000D01*
D11*
X-1309286Y-2035476D02*
X-1290238Y-2035476D01*
X-1271190Y-2045000D01*
X-1261667Y-2054524D01*
X-1252143Y-2073571D01*
X-1242619Y-2111667D01*
X-1242619Y-2159286D01*
X-1252143Y-2197381D01*
X-1261667Y-2216429D01*
X-1271190Y-2225952D01*
X-1290238Y-2235476D01*
X-1309286Y-2235476D01*
X-1328333Y-2225952D01*
X-1337857Y-2216429D01*
X-1347381Y-2197381D01*
X-1356905Y-2159286D01*
X-1356905Y-2111667D01*
X-1347381Y-2073571D01*
X-1337857Y-2054524D01*
X-1328333Y-2045000D01*
X-1309286Y-2035476D01*
X-1156905Y-2216429D02*
X-1147381Y-2225952D01*
X-1156905Y-2235476D01*
X-1166429Y-2225952D01*
X-1156905Y-2216429D01*
X-1156905Y-2235476D01*
X-1071190Y-2054524D02*
X-1061667Y-2045000D01*
X-1042619Y-2035476D01*
X-995000Y-2035476D01*
X-975952Y-2045000D01*
X-966428Y-2054524D01*
X-956905Y-2073571D01*
X-956905Y-2092619D01*
X-966428Y-2121190D01*
X-1080714Y-2235476D01*
X-956905Y-2235476D01*
X-833095Y-2035476D02*
X-814048Y-2035476D01*
X-795000Y-2045000D01*
X-785476Y-2054524D01*
X-775952Y-2073571D01*
X-766428Y-2111667D01*
X-766428Y-2159286D01*
X-775952Y-2197381D01*
X-785476Y-2216429D01*
X-795000Y-2225952D01*
X-814048Y-2235476D01*
X-833095Y-2235476D01*
X-852143Y-2225952D01*
X-861667Y-2216429D01*
X-871190Y-2197381D01*
X-880714Y-2159286D01*
X-880714Y-2111667D01*
X-871190Y-2073571D01*
X-861667Y-2054524D01*
X-852143Y-2045000D01*
X-833095Y-2035476D01*
X-642619Y-2035476D02*
X-623571Y-2035476D01*
X-604524Y-2045000D01*
X-595000Y-2054524D01*
X-585476Y-2073571D01*
X-575952Y-2111667D01*
X-575952Y-2159286D01*
X-585476Y-2197381D01*
X-595000Y-2216429D01*
X-604524Y-2225952D01*
X-623571Y-2235476D01*
X-642619Y-2235476D01*
X-661667Y-2225952D01*
X-671190Y-2216429D01*
X-680714Y-2197381D01*
X-690238Y-2159286D01*
X-690238Y-2111667D01*
X-680714Y-2073571D01*
X-671190Y-2054524D01*
X-661667Y-2045000D01*
X-642619Y-2035476D01*
X-490238Y-2235476D02*
X-490238Y-2102143D01*
X-490238Y-2121190D02*
X-480714Y-2111667D01*
X-461667Y-2102143D01*
X-433095Y-2102143D01*
X-414048Y-2111667D01*
X-404524Y-2130714D01*
X-404524Y-2235476D01*
X-404524Y-2130714D02*
X-395000Y-2111667D01*
X-375952Y-2102143D01*
X-347381Y-2102143D01*
X-328333Y-2111667D01*
X-318810Y-2130714D01*
X-318810Y-2235476D01*
X-223571Y-2235476D02*
X-223571Y-2102143D01*
X-223571Y-2121190D02*
X-214048Y-2111667D01*
X-195000Y-2102143D01*
X-166429Y-2102143D01*
X-147381Y-2111667D01*
X-137857Y-2130714D01*
X-137857Y-2235476D01*
X-137857Y-2130714D02*
X-128333Y-2111667D01*
X-109286Y-2102143D01*
X-80714Y-2102143D01*
X-61667Y-2111667D01*
X-52143Y-2130714D01*
X-52143Y-2235476D01*
X338333Y-2025952D02*
X166905Y-2283095D01*
X595476Y-2035476D02*
X614524Y-2035476D01*
X633571Y-2045000D01*
X643095Y-2054524D01*
X652619Y-2073571D01*
X662143Y-2111667D01*
X662143Y-2159286D01*
X652619Y-2197381D01*
X643095Y-2216429D01*
X633571Y-2225952D01*
X614524Y-2235476D01*
X595476Y-2235476D01*
X576429Y-2225952D01*
X566905Y-2216429D01*
X557381Y-2197381D01*
X547857Y-2159286D01*
X547857Y-2111667D01*
X557381Y-2073571D01*
X566905Y-2054524D01*
X576429Y-2045000D01*
X595476Y-2035476D01*
X747857Y-2216429D02*
X757381Y-2225952D01*
X747857Y-2235476D01*
X738333Y-2225952D01*
X747857Y-2216429D01*
X747857Y-2235476D01*
X881190Y-2035476D02*
X900238Y-2035476D01*
X919286Y-2045000D01*
X928809Y-2054524D01*
X938333Y-2073571D01*
X947857Y-2111667D01*
X947857Y-2159286D01*
X938333Y-2197381D01*
X928809Y-2216429D01*
X919286Y-2225952D01*
X900238Y-2235476D01*
X881190Y-2235476D01*
X862143Y-2225952D01*
X852619Y-2216429D01*
X843095Y-2197381D01*
X833571Y-2159286D01*
X833571Y-2111667D01*
X843095Y-2073571D01*
X852619Y-2054524D01*
X862143Y-2045000D01*
X881190Y-2035476D01*
X1071667Y-2035476D02*
X1090714Y-2035476D01*
X1109762Y-2045000D01*
X1119286Y-2054524D01*
X1128810Y-2073571D01*
X1138333Y-2111667D01*
X1138333Y-2159286D01*
X1128810Y-2197381D01*
X1119286Y-2216429D01*
X1109762Y-2225952D01*
X1090714Y-2235476D01*
X1071667Y-2235476D01*
X1052619Y-2225952D01*
X1043095Y-2216429D01*
X1033571Y-2197381D01*
X1024048Y-2159286D01*
X1024048Y-2111667D01*
X1033571Y-2073571D01*
X1043095Y-2054524D01*
X1052619Y-2045000D01*
X1071667Y-2035476D01*
X1205000Y-2035476D02*
X1338333Y-2035476D01*
X1252619Y-2235476D01*
X1424048Y-2235476D02*
X1462143Y-2235476D01*
X1481190Y-2225952D01*
X1490714Y-2216429D01*
X1509762Y-2187857D01*
X1519286Y-2149762D01*
X1519286Y-2073571D01*
X1509762Y-2054524D01*
X1500238Y-2045000D01*
X1481190Y-2035476D01*
X1443095Y-2035476D01*
X1424048Y-2045000D01*
X1414524Y-2054524D01*
X1405000Y-2073571D01*
X1405000Y-2121190D01*
X1414524Y-2140238D01*
X1424048Y-2149762D01*
X1443095Y-2159286D01*
X1481190Y-2159286D01*
X1500238Y-2149762D01*
X1509762Y-2140238D01*
X1519286Y-2121190D01*
X1595476Y-2035476D02*
X1595476Y-2073571D01*
X1671667Y-2035476D02*
X1671667Y-2073571D01*
X1966905Y-2311667D02*
X1957381Y-2302143D01*
X1938333Y-2273571D01*
X1928809Y-2254524D01*
X1919286Y-2225952D01*
X1909762Y-2178333D01*
X1909762Y-2140238D01*
X1919286Y-2092619D01*
X1928809Y-2064048D01*
X1938333Y-2045000D01*
X1957381Y-2016428D01*
X1966905Y-2006905D01*
X2147857Y-2235476D02*
X2033571Y-2235476D01*
X2090714Y-2235476D02*
X2090714Y-2035476D01*
X2071667Y-2064048D01*
X2052619Y-2083095D01*
X2033571Y-2092619D01*
X2319286Y-2035476D02*
X2281190Y-2035476D01*
X2262143Y-2045000D01*
X2252619Y-2054524D01*
X2233571Y-2083095D01*
X2224048Y-2121190D01*
X2224048Y-2197381D01*
X2233571Y-2216429D01*
X2243095Y-2225952D01*
X2262143Y-2235476D01*
X2300238Y-2235476D01*
X2319286Y-2225952D01*
X2328810Y-2216429D01*
X2338333Y-2197381D01*
X2338333Y-2149762D01*
X2328810Y-2130714D01*
X2319286Y-2121190D01*
X2300238Y-2111667D01*
X2262143Y-2111667D01*
X2243095Y-2121190D01*
X2233571Y-2130714D01*
X2224048Y-2149762D01*
X2462143Y-2035476D02*
X2481190Y-2035476D01*
X2500238Y-2045000D01*
X2509762Y-2054524D01*
X2519286Y-2073571D01*
X2528810Y-2111667D01*
X2528810Y-2159286D01*
X2519286Y-2197381D01*
X2509762Y-2216429D01*
X2500238Y-2225952D01*
X2481190Y-2235476D01*
X2462143Y-2235476D01*
X2443095Y-2225952D01*
X2433571Y-2216429D01*
X2424048Y-2197381D01*
X2414524Y-2159286D01*
X2414524Y-2111667D01*
X2424048Y-2073571D01*
X2433571Y-2054524D01*
X2443095Y-2045000D01*
X2462143Y-2035476D01*
X2766905Y-2235476D02*
X2766905Y-2035476D01*
X2852619Y-2235476D02*
X2852619Y-2130714D01*
X2843095Y-2111667D01*
X2824048Y-2102143D01*
X2795476Y-2102143D01*
X2776429Y-2111667D01*
X2766905Y-2121190D01*
X2976428Y-2235476D02*
X2957381Y-2225952D01*
X2947857Y-2216429D01*
X2938333Y-2197381D01*
X2938333Y-2140238D01*
X2947857Y-2121190D01*
X2957381Y-2111667D01*
X2976428Y-2102143D01*
X3005000Y-2102143D01*
X3024048Y-2111667D01*
X3033571Y-2121190D01*
X3043095Y-2140238D01*
X3043095Y-2197381D01*
X3033571Y-2216429D01*
X3024048Y-2225952D01*
X3005000Y-2235476D01*
X2976428Y-2235476D01*
X3157381Y-2235476D02*
X3138333Y-2225952D01*
X3128809Y-2206905D01*
X3128809Y-2035476D01*
X3309762Y-2225952D02*
X3290714Y-2235476D01*
X3252619Y-2235476D01*
X3233571Y-2225952D01*
X3224048Y-2206905D01*
X3224048Y-2130714D01*
X3233571Y-2111667D01*
X3252619Y-2102143D01*
X3290714Y-2102143D01*
X3309762Y-2111667D01*
X3319286Y-2130714D01*
X3319286Y-2149762D01*
X3224048Y-2168810D01*
X3395476Y-2225952D02*
X3414524Y-2235476D01*
X3452619Y-2235476D01*
X3471667Y-2225952D01*
X3481190Y-2206905D01*
X3481190Y-2197381D01*
X3471667Y-2178333D01*
X3452619Y-2168810D01*
X3424048Y-2168810D01*
X3405000Y-2159286D01*
X3395476Y-2140238D01*
X3395476Y-2130714D01*
X3405000Y-2111667D01*
X3424048Y-2102143D01*
X3452619Y-2102143D01*
X3471667Y-2111667D01*
X3547857Y-2311667D02*
X3557381Y-2302143D01*
X3576428Y-2273571D01*
X3585952Y-2254524D01*
X3595476Y-2225952D01*
X3605000Y-2178333D01*
X3605000Y-2140238D01*
X3595476Y-2092619D01*
X3585952Y-2064048D01*
X3576428Y-2045000D01*
X3557381Y-2016428D01*
X3547857Y-2006905D01*
D13*
X-1605000Y-2409000D02*
G75*
G03*
X-1605000Y-2409000I-15000J0D01*
G01*
D11*
X-1309286Y-2299476D02*
X-1290238Y-2299476D01*
X-1271190Y-2309000D01*
X-1261667Y-2318524D01*
X-1252143Y-2337571D01*
X-1242619Y-2375667D01*
X-1242619Y-2423286D01*
X-1252143Y-2461381D01*
X-1261667Y-2480429D01*
X-1271190Y-2489952D01*
X-1290238Y-2499476D01*
X-1309286Y-2499476D01*
X-1328333Y-2489952D01*
X-1337857Y-2480429D01*
X-1347381Y-2461381D01*
X-1356905Y-2423286D01*
X-1356905Y-2375667D01*
X-1347381Y-2337571D01*
X-1337857Y-2318524D01*
X-1328333Y-2309000D01*
X-1309286Y-2299476D01*
X-1156905Y-2480429D02*
X-1147381Y-2489952D01*
X-1156905Y-2499476D01*
X-1166429Y-2489952D01*
X-1156905Y-2480429D01*
X-1156905Y-2499476D01*
X-1080714Y-2299476D02*
X-956905Y-2299476D01*
X-1023571Y-2375667D01*
X-995000Y-2375667D01*
X-975952Y-2385190D01*
X-966428Y-2394714D01*
X-956905Y-2413762D01*
X-956905Y-2461381D01*
X-966428Y-2480429D01*
X-975952Y-2489952D01*
X-995000Y-2499476D01*
X-1052143Y-2499476D01*
X-1071190Y-2489952D01*
X-1080714Y-2480429D01*
X-833095Y-2299476D02*
X-814048Y-2299476D01*
X-795000Y-2309000D01*
X-785476Y-2318524D01*
X-775952Y-2337571D01*
X-766428Y-2375667D01*
X-766428Y-2423286D01*
X-775952Y-2461381D01*
X-785476Y-2480429D01*
X-795000Y-2489952D01*
X-814048Y-2499476D01*
X-833095Y-2499476D01*
X-852143Y-2489952D01*
X-861667Y-2480429D01*
X-871190Y-2461381D01*
X-880714Y-2423286D01*
X-880714Y-2375667D01*
X-871190Y-2337571D01*
X-861667Y-2318524D01*
X-852143Y-2309000D01*
X-833095Y-2299476D01*
X-642619Y-2299476D02*
X-623571Y-2299476D01*
X-604524Y-2309000D01*
X-595000Y-2318524D01*
X-585476Y-2337571D01*
X-575952Y-2375667D01*
X-575952Y-2423286D01*
X-585476Y-2461381D01*
X-595000Y-2480429D01*
X-604524Y-2489952D01*
X-623571Y-2499476D01*
X-642619Y-2499476D01*
X-661667Y-2489952D01*
X-671190Y-2480429D01*
X-680714Y-2461381D01*
X-690238Y-2423286D01*
X-690238Y-2375667D01*
X-680714Y-2337571D01*
X-671190Y-2318524D01*
X-661667Y-2309000D01*
X-642619Y-2299476D01*
X-490238Y-2499476D02*
X-490238Y-2366143D01*
X-490238Y-2385190D02*
X-480714Y-2375667D01*
X-461667Y-2366143D01*
X-433095Y-2366143D01*
X-414048Y-2375667D01*
X-404524Y-2394714D01*
X-404524Y-2499476D01*
X-404524Y-2394714D02*
X-395000Y-2375667D01*
X-375952Y-2366143D01*
X-347381Y-2366143D01*
X-328333Y-2375667D01*
X-318810Y-2394714D01*
X-318810Y-2499476D01*
X-223571Y-2499476D02*
X-223571Y-2366143D01*
X-223571Y-2385190D02*
X-214048Y-2375667D01*
X-195000Y-2366143D01*
X-166429Y-2366143D01*
X-147381Y-2375667D01*
X-137857Y-2394714D01*
X-137857Y-2499476D01*
X-137857Y-2394714D02*
X-128333Y-2375667D01*
X-109286Y-2366143D01*
X-80714Y-2366143D01*
X-61667Y-2375667D01*
X-52143Y-2394714D01*
X-52143Y-2499476D01*
X338333Y-2289952D02*
X166905Y-2547095D01*
X595476Y-2299476D02*
X614524Y-2299476D01*
X633571Y-2309000D01*
X643095Y-2318524D01*
X652619Y-2337571D01*
X662143Y-2375667D01*
X662143Y-2423286D01*
X652619Y-2461381D01*
X643095Y-2480429D01*
X633571Y-2489952D01*
X614524Y-2499476D01*
X595476Y-2499476D01*
X576429Y-2489952D01*
X566905Y-2480429D01*
X557381Y-2461381D01*
X547857Y-2423286D01*
X547857Y-2375667D01*
X557381Y-2337571D01*
X566905Y-2318524D01*
X576429Y-2309000D01*
X595476Y-2299476D01*
X747857Y-2480429D02*
X757381Y-2489952D01*
X747857Y-2499476D01*
X738333Y-2489952D01*
X747857Y-2480429D01*
X747857Y-2499476D01*
X881190Y-2299476D02*
X900238Y-2299476D01*
X919286Y-2309000D01*
X928809Y-2318524D01*
X938333Y-2337571D01*
X947857Y-2375667D01*
X947857Y-2423286D01*
X938333Y-2461381D01*
X928809Y-2480429D01*
X919286Y-2489952D01*
X900238Y-2499476D01*
X881190Y-2499476D01*
X862143Y-2489952D01*
X852619Y-2480429D01*
X843095Y-2461381D01*
X833571Y-2423286D01*
X833571Y-2375667D01*
X843095Y-2337571D01*
X852619Y-2318524D01*
X862143Y-2309000D01*
X881190Y-2299476D01*
X1138333Y-2499476D02*
X1024048Y-2499476D01*
X1081190Y-2499476D02*
X1081190Y-2299476D01*
X1062143Y-2328048D01*
X1043095Y-2347095D01*
X1024048Y-2356619D01*
X1328810Y-2499476D02*
X1214524Y-2499476D01*
X1271667Y-2499476D02*
X1271667Y-2299476D01*
X1252619Y-2328048D01*
X1233571Y-2347095D01*
X1214524Y-2356619D01*
X1443095Y-2385190D02*
X1424048Y-2375667D01*
X1414524Y-2366143D01*
X1405000Y-2347095D01*
X1405000Y-2337571D01*
X1414524Y-2318524D01*
X1424048Y-2309000D01*
X1443095Y-2299476D01*
X1481190Y-2299476D01*
X1500238Y-2309000D01*
X1509762Y-2318524D01*
X1519286Y-2337571D01*
X1519286Y-2347095D01*
X1509762Y-2366143D01*
X1500238Y-2375667D01*
X1481190Y-2385190D01*
X1443095Y-2385190D01*
X1424048Y-2394714D01*
X1414524Y-2404238D01*
X1405000Y-2423286D01*
X1405000Y-2461381D01*
X1414524Y-2480429D01*
X1424048Y-2489952D01*
X1443095Y-2499476D01*
X1481190Y-2499476D01*
X1500238Y-2489952D01*
X1509762Y-2480429D01*
X1519286Y-2461381D01*
X1519286Y-2423286D01*
X1509762Y-2404238D01*
X1500238Y-2394714D01*
X1481190Y-2385190D01*
X1595476Y-2299476D02*
X1595476Y-2337571D01*
X1671667Y-2299476D02*
X1671667Y-2337571D01*
X1966905Y-2575667D02*
X1957381Y-2566143D01*
X1938333Y-2537571D01*
X1928809Y-2518524D01*
X1919286Y-2489952D01*
X1909762Y-2442333D01*
X1909762Y-2404238D01*
X1919286Y-2356619D01*
X1928809Y-2328048D01*
X1938333Y-2309000D01*
X1957381Y-2280429D01*
X1966905Y-2270905D01*
X2147857Y-2499476D02*
X2033571Y-2499476D01*
X2090714Y-2499476D02*
X2090714Y-2299476D01*
X2071667Y-2328048D01*
X2052619Y-2347095D01*
X2033571Y-2356619D01*
X2385952Y-2499476D02*
X2385952Y-2299476D01*
X2471667Y-2499476D02*
X2471667Y-2394714D01*
X2462143Y-2375667D01*
X2443095Y-2366143D01*
X2414524Y-2366143D01*
X2395476Y-2375667D01*
X2385952Y-2385190D01*
X2595476Y-2499476D02*
X2576429Y-2489952D01*
X2566905Y-2480429D01*
X2557381Y-2461381D01*
X2557381Y-2404238D01*
X2566905Y-2385190D01*
X2576429Y-2375667D01*
X2595476Y-2366143D01*
X2624048Y-2366143D01*
X2643095Y-2375667D01*
X2652619Y-2385190D01*
X2662143Y-2404238D01*
X2662143Y-2461381D01*
X2652619Y-2480429D01*
X2643095Y-2489952D01*
X2624048Y-2499476D01*
X2595476Y-2499476D01*
X2776429Y-2499476D02*
X2757381Y-2489952D01*
X2747857Y-2470905D01*
X2747857Y-2299476D01*
X2928809Y-2489952D02*
X2909762Y-2499476D01*
X2871667Y-2499476D01*
X2852619Y-2489952D01*
X2843095Y-2470905D01*
X2843095Y-2394714D01*
X2852619Y-2375667D01*
X2871667Y-2366143D01*
X2909762Y-2366143D01*
X2928809Y-2375667D01*
X2938333Y-2394714D01*
X2938333Y-2413762D01*
X2843095Y-2432810D01*
X3005000Y-2575667D02*
X3014524Y-2566143D01*
X3033571Y-2537571D01*
X3043095Y-2518524D01*
X3052619Y-2489952D01*
X3062143Y-2442333D01*
X3062143Y-2404238D01*
X3052619Y-2356619D01*
X3043095Y-2328048D01*
X3033571Y-2309000D01*
X3014524Y-2280429D01*
X3005000Y-2270905D01*
D14*
X-1625000Y-2653000D02*
X-1625000Y-2693000D01*
X-1645000Y-2673000D02*
X-1605000Y-2673000D01*
D11*
X-1309286Y-2563476D02*
X-1290238Y-2563476D01*
X-1271190Y-2573000D01*
X-1261667Y-2582524D01*
X-1252143Y-2601571D01*
X-1242619Y-2639667D01*
X-1242619Y-2687286D01*
X-1252143Y-2725381D01*
X-1261667Y-2744429D01*
X-1271190Y-2753952D01*
X-1290238Y-2763476D01*
X-1309286Y-2763476D01*
X-1328333Y-2753952D01*
X-1337857Y-2744429D01*
X-1347381Y-2725381D01*
X-1356905Y-2687286D01*
X-1356905Y-2639667D01*
X-1347381Y-2601571D01*
X-1337857Y-2582524D01*
X-1328333Y-2573000D01*
X-1309286Y-2563476D01*
X-1156905Y-2744429D02*
X-1147381Y-2753952D01*
X-1156905Y-2763476D01*
X-1166429Y-2753952D01*
X-1156905Y-2744429D01*
X-1156905Y-2763476D01*
X-975952Y-2630143D02*
X-975952Y-2763476D01*
X-1023571Y-2553952D02*
X-1071190Y-2696810D01*
X-947381Y-2696810D01*
X-833095Y-2563476D02*
X-814048Y-2563476D01*
X-795000Y-2573000D01*
X-785476Y-2582524D01*
X-775952Y-2601571D01*
X-766428Y-2639667D01*
X-766428Y-2687286D01*
X-775952Y-2725381D01*
X-785476Y-2744429D01*
X-795000Y-2753952D01*
X-814048Y-2763476D01*
X-833095Y-2763476D01*
X-852143Y-2753952D01*
X-861667Y-2744429D01*
X-871190Y-2725381D01*
X-880714Y-2687286D01*
X-880714Y-2639667D01*
X-871190Y-2601571D01*
X-861667Y-2582524D01*
X-852143Y-2573000D01*
X-833095Y-2563476D01*
X-642619Y-2563476D02*
X-623571Y-2563476D01*
X-604524Y-2573000D01*
X-595000Y-2582524D01*
X-585476Y-2601571D01*
X-575952Y-2639667D01*
X-575952Y-2687286D01*
X-585476Y-2725381D01*
X-595000Y-2744429D01*
X-604524Y-2753952D01*
X-623571Y-2763476D01*
X-642619Y-2763476D01*
X-661667Y-2753952D01*
X-671190Y-2744429D01*
X-680714Y-2725381D01*
X-690238Y-2687286D01*
X-690238Y-2639667D01*
X-680714Y-2601571D01*
X-671190Y-2582524D01*
X-661667Y-2573000D01*
X-642619Y-2563476D01*
X-490238Y-2763476D02*
X-490238Y-2630143D01*
X-490238Y-2649190D02*
X-480714Y-2639667D01*
X-461667Y-2630143D01*
X-433095Y-2630143D01*
X-414048Y-2639667D01*
X-404524Y-2658714D01*
X-404524Y-2763476D01*
X-404524Y-2658714D02*
X-395000Y-2639667D01*
X-375952Y-2630143D01*
X-347381Y-2630143D01*
X-328333Y-2639667D01*
X-318810Y-2658714D01*
X-318810Y-2763476D01*
X-223571Y-2763476D02*
X-223571Y-2630143D01*
X-223571Y-2649190D02*
X-214048Y-2639667D01*
X-195000Y-2630143D01*
X-166429Y-2630143D01*
X-147381Y-2639667D01*
X-137857Y-2658714D01*
X-137857Y-2763476D01*
X-137857Y-2658714D02*
X-128333Y-2639667D01*
X-109286Y-2630143D01*
X-80714Y-2630143D01*
X-61667Y-2639667D01*
X-52143Y-2658714D01*
X-52143Y-2763476D01*
X338333Y-2553952D02*
X166905Y-2811095D01*
X595476Y-2563476D02*
X614524Y-2563476D01*
X633571Y-2573000D01*
X643095Y-2582524D01*
X652619Y-2601571D01*
X662143Y-2639667D01*
X662143Y-2687286D01*
X652619Y-2725381D01*
X643095Y-2744429D01*
X633571Y-2753952D01*
X614524Y-2763476D01*
X595476Y-2763476D01*
X576429Y-2753952D01*
X566905Y-2744429D01*
X557381Y-2725381D01*
X547857Y-2687286D01*
X547857Y-2639667D01*
X557381Y-2601571D01*
X566905Y-2582524D01*
X576429Y-2573000D01*
X595476Y-2563476D01*
X747857Y-2744429D02*
X757381Y-2753952D01*
X747857Y-2763476D01*
X738333Y-2753952D01*
X747857Y-2744429D01*
X747857Y-2763476D01*
X881190Y-2563476D02*
X900238Y-2563476D01*
X919286Y-2573000D01*
X928809Y-2582524D01*
X938333Y-2601571D01*
X947857Y-2639667D01*
X947857Y-2687286D01*
X938333Y-2725381D01*
X928809Y-2744429D01*
X919286Y-2753952D01*
X900238Y-2763476D01*
X881190Y-2763476D01*
X862143Y-2753952D01*
X852619Y-2744429D01*
X843095Y-2725381D01*
X833571Y-2687286D01*
X833571Y-2639667D01*
X843095Y-2601571D01*
X852619Y-2582524D01*
X862143Y-2573000D01*
X881190Y-2563476D01*
X1138333Y-2763476D02*
X1024048Y-2763476D01*
X1081190Y-2763476D02*
X1081190Y-2563476D01*
X1062143Y-2592048D01*
X1043095Y-2611095D01*
X1024048Y-2620619D01*
X1319286Y-2563476D02*
X1224048Y-2563476D01*
X1214524Y-2658714D01*
X1224048Y-2649190D01*
X1243095Y-2639667D01*
X1290714Y-2639667D01*
X1309762Y-2649190D01*
X1319286Y-2658714D01*
X1328810Y-2677762D01*
X1328810Y-2725381D01*
X1319286Y-2744429D01*
X1309762Y-2753952D01*
X1290714Y-2763476D01*
X1243095Y-2763476D01*
X1224048Y-2753952D01*
X1214524Y-2744429D01*
X1395476Y-2563476D02*
X1528809Y-2563476D01*
X1443095Y-2763476D01*
X1595476Y-2563476D02*
X1595476Y-2601571D01*
X1671667Y-2563476D02*
X1671667Y-2601571D01*
X1966905Y-2839667D02*
X1957381Y-2830143D01*
X1938333Y-2801571D01*
X1928809Y-2782524D01*
X1919286Y-2753952D01*
X1909762Y-2706333D01*
X1909762Y-2668238D01*
X1919286Y-2620619D01*
X1928809Y-2592048D01*
X1938333Y-2573000D01*
X1957381Y-2544429D01*
X1966905Y-2534905D01*
X2128810Y-2563476D02*
X2090714Y-2563476D01*
X2071667Y-2573000D01*
X2062143Y-2582524D01*
X2043095Y-2611095D01*
X2033571Y-2649190D01*
X2033571Y-2725381D01*
X2043095Y-2744429D01*
X2052619Y-2753952D01*
X2071667Y-2763476D01*
X2109762Y-2763476D01*
X2128810Y-2753952D01*
X2138333Y-2744429D01*
X2147857Y-2725381D01*
X2147857Y-2677762D01*
X2138333Y-2658714D01*
X2128810Y-2649190D01*
X2109762Y-2639667D01*
X2071667Y-2639667D01*
X2052619Y-2649190D01*
X2043095Y-2658714D01*
X2033571Y-2677762D01*
X2338333Y-2763476D02*
X2224048Y-2763476D01*
X2281190Y-2763476D02*
X2281190Y-2563476D01*
X2262143Y-2592048D01*
X2243095Y-2611095D01*
X2224048Y-2620619D01*
X2576429Y-2763476D02*
X2576429Y-2563476D01*
X2662143Y-2763476D02*
X2662143Y-2658714D01*
X2652619Y-2639667D01*
X2633571Y-2630143D01*
X2605000Y-2630143D01*
X2585952Y-2639667D01*
X2576429Y-2649190D01*
X2785952Y-2763476D02*
X2766905Y-2753952D01*
X2757381Y-2744429D01*
X2747857Y-2725381D01*
X2747857Y-2668238D01*
X2757381Y-2649190D01*
X2766905Y-2639667D01*
X2785952Y-2630143D01*
X2814524Y-2630143D01*
X2833571Y-2639667D01*
X2843095Y-2649190D01*
X2852619Y-2668238D01*
X2852619Y-2725381D01*
X2843095Y-2744429D01*
X2833571Y-2753952D01*
X2814524Y-2763476D01*
X2785952Y-2763476D01*
X2966905Y-2763476D02*
X2947857Y-2753952D01*
X2938333Y-2734905D01*
X2938333Y-2563476D01*
X3119286Y-2753952D02*
X3100238Y-2763476D01*
X3062143Y-2763476D01*
X3043095Y-2753952D01*
X3033571Y-2734905D01*
X3033571Y-2658714D01*
X3043095Y-2639667D01*
X3062143Y-2630143D01*
X3100238Y-2630143D01*
X3119286Y-2639667D01*
X3128809Y-2658714D01*
X3128809Y-2677762D01*
X3033571Y-2696810D01*
X3205000Y-2753952D02*
X3224048Y-2763476D01*
X3262143Y-2763476D01*
X3281190Y-2753952D01*
X3290714Y-2734905D01*
X3290714Y-2725381D01*
X3281190Y-2706333D01*
X3262143Y-2696810D01*
X3233571Y-2696810D01*
X3214524Y-2687286D01*
X3205000Y-2668238D01*
X3205000Y-2658714D01*
X3214524Y-2639667D01*
X3233571Y-2630143D01*
X3262143Y-2630143D01*
X3281190Y-2639667D01*
X3357381Y-2839667D02*
X3366905Y-2830143D01*
X3385952Y-2801571D01*
X3395476Y-2782524D01*
X3405000Y-2753952D01*
X3414524Y-2706333D01*
X3414524Y-2668238D01*
X3405000Y-2620619D01*
X3395476Y-2592048D01*
X3385952Y-2573000D01*
X3366905Y-2544429D01*
X3357381Y-2534905D01*
D15*
X-1612322Y-2954678D02*
X-1612322Y-2919322D01*
X-1647678Y-2919322D01*
X-1647678Y-2954678D01*
X-1612322Y-2954678D01*
D11*
X-1309286Y-2827476D02*
X-1290238Y-2827476D01*
X-1271190Y-2837000D01*
X-1261667Y-2846524D01*
X-1252143Y-2865571D01*
X-1242619Y-2903667D01*
X-1242619Y-2951286D01*
X-1252143Y-2989381D01*
X-1261667Y-3008428D01*
X-1271190Y-3017952D01*
X-1290238Y-3027476D01*
X-1309286Y-3027476D01*
X-1328333Y-3017952D01*
X-1337857Y-3008428D01*
X-1347381Y-2989381D01*
X-1356905Y-2951286D01*
X-1356905Y-2903667D01*
X-1347381Y-2865571D01*
X-1337857Y-2846524D01*
X-1328333Y-2837000D01*
X-1309286Y-2827476D01*
X-1156905Y-3008428D02*
X-1147381Y-3017952D01*
X-1156905Y-3027476D01*
X-1166429Y-3017952D01*
X-1156905Y-3008428D01*
X-1156905Y-3027476D01*
X-966428Y-2827476D02*
X-1061667Y-2827476D01*
X-1071190Y-2922714D01*
X-1061667Y-2913190D01*
X-1042619Y-2903667D01*
X-995000Y-2903667D01*
X-975952Y-2913190D01*
X-966428Y-2922714D01*
X-956905Y-2941762D01*
X-956905Y-2989381D01*
X-966428Y-3008428D01*
X-975952Y-3017952D01*
X-995000Y-3027476D01*
X-1042619Y-3027476D01*
X-1061667Y-3017952D01*
X-1071190Y-3008428D01*
X-833095Y-2827476D02*
X-814048Y-2827476D01*
X-795000Y-2837000D01*
X-785476Y-2846524D01*
X-775952Y-2865571D01*
X-766428Y-2903667D01*
X-766428Y-2951286D01*
X-775952Y-2989381D01*
X-785476Y-3008428D01*
X-795000Y-3017952D01*
X-814048Y-3027476D01*
X-833095Y-3027476D01*
X-852143Y-3017952D01*
X-861667Y-3008428D01*
X-871190Y-2989381D01*
X-880714Y-2951286D01*
X-880714Y-2903667D01*
X-871190Y-2865571D01*
X-861667Y-2846524D01*
X-852143Y-2837000D01*
X-833095Y-2827476D01*
X-642619Y-2827476D02*
X-623571Y-2827476D01*
X-604524Y-2837000D01*
X-595000Y-2846524D01*
X-585476Y-2865571D01*
X-575952Y-2903667D01*
X-575952Y-2951286D01*
X-585476Y-2989381D01*
X-595000Y-3008428D01*
X-604524Y-3017952D01*
X-623571Y-3027476D01*
X-642619Y-3027476D01*
X-661667Y-3017952D01*
X-671190Y-3008428D01*
X-680714Y-2989381D01*
X-690238Y-2951286D01*
X-690238Y-2903667D01*
X-680714Y-2865571D01*
X-671190Y-2846524D01*
X-661667Y-2837000D01*
X-642619Y-2827476D01*
X-490238Y-3027476D02*
X-490238Y-2894143D01*
X-490238Y-2913190D02*
X-480714Y-2903667D01*
X-461667Y-2894143D01*
X-433095Y-2894143D01*
X-414048Y-2903667D01*
X-404524Y-2922714D01*
X-404524Y-3027476D01*
X-404524Y-2922714D02*
X-395000Y-2903667D01*
X-375952Y-2894143D01*
X-347381Y-2894143D01*
X-328333Y-2903667D01*
X-318810Y-2922714D01*
X-318810Y-3027476D01*
X-223571Y-3027476D02*
X-223571Y-2894143D01*
X-223571Y-2913190D02*
X-214048Y-2903667D01*
X-195000Y-2894143D01*
X-166429Y-2894143D01*
X-147381Y-2903667D01*
X-137857Y-2922714D01*
X-137857Y-3027476D01*
X-137857Y-2922714D02*
X-128333Y-2903667D01*
X-109286Y-2894143D01*
X-80714Y-2894143D01*
X-61667Y-2903667D01*
X-52143Y-2922714D01*
X-52143Y-3027476D01*
X338333Y-2817952D02*
X166905Y-3075095D01*
X595476Y-2827476D02*
X614524Y-2827476D01*
X633571Y-2837000D01*
X643095Y-2846524D01*
X652619Y-2865571D01*
X662143Y-2903667D01*
X662143Y-2951286D01*
X652619Y-2989381D01*
X643095Y-3008428D01*
X633571Y-3017952D01*
X614524Y-3027476D01*
X595476Y-3027476D01*
X576429Y-3017952D01*
X566905Y-3008428D01*
X557381Y-2989381D01*
X547857Y-2951286D01*
X547857Y-2903667D01*
X557381Y-2865571D01*
X566905Y-2846524D01*
X576429Y-2837000D01*
X595476Y-2827476D01*
X747857Y-3008428D02*
X757381Y-3017952D01*
X747857Y-3027476D01*
X738333Y-3017952D01*
X747857Y-3008428D01*
X747857Y-3027476D01*
X881190Y-2827476D02*
X900238Y-2827476D01*
X919286Y-2837000D01*
X928809Y-2846524D01*
X938333Y-2865571D01*
X947857Y-2903667D01*
X947857Y-2951286D01*
X938333Y-2989381D01*
X928809Y-3008428D01*
X919286Y-3017952D01*
X900238Y-3027476D01*
X881190Y-3027476D01*
X862143Y-3017952D01*
X852619Y-3008428D01*
X843095Y-2989381D01*
X833571Y-2951286D01*
X833571Y-2903667D01*
X843095Y-2865571D01*
X852619Y-2846524D01*
X862143Y-2837000D01*
X881190Y-2827476D01*
X1138333Y-3027476D02*
X1024048Y-3027476D01*
X1081190Y-3027476D02*
X1081190Y-2827476D01*
X1062143Y-2856048D01*
X1043095Y-2875095D01*
X1024048Y-2884619D01*
X1233571Y-3027476D02*
X1271667Y-3027476D01*
X1290714Y-3017952D01*
X1300238Y-3008428D01*
X1319286Y-2979857D01*
X1328810Y-2941762D01*
X1328810Y-2865571D01*
X1319286Y-2846524D01*
X1309762Y-2837000D01*
X1290714Y-2827476D01*
X1252619Y-2827476D01*
X1233571Y-2837000D01*
X1224048Y-2846524D01*
X1214524Y-2865571D01*
X1214524Y-2913190D01*
X1224048Y-2932238D01*
X1233571Y-2941762D01*
X1252619Y-2951286D01*
X1290714Y-2951286D01*
X1309762Y-2941762D01*
X1319286Y-2932238D01*
X1328810Y-2913190D01*
X1395476Y-2827476D02*
X1528809Y-2827476D01*
X1443095Y-3027476D01*
X1595476Y-2827476D02*
X1595476Y-2865571D01*
X1671667Y-2827476D02*
X1671667Y-2865571D01*
X1966905Y-3103667D02*
X1957381Y-3094143D01*
X1938333Y-3065571D01*
X1928809Y-3046524D01*
X1919286Y-3017952D01*
X1909762Y-2970333D01*
X1909762Y-2932238D01*
X1919286Y-2884619D01*
X1928809Y-2856048D01*
X1938333Y-2837000D01*
X1957381Y-2808428D01*
X1966905Y-2798905D01*
X2128810Y-2827476D02*
X2090714Y-2827476D01*
X2071667Y-2837000D01*
X2062143Y-2846524D01*
X2043095Y-2875095D01*
X2033571Y-2913190D01*
X2033571Y-2989381D01*
X2043095Y-3008428D01*
X2052619Y-3017952D01*
X2071667Y-3027476D01*
X2109762Y-3027476D01*
X2128810Y-3017952D01*
X2138333Y-3008428D01*
X2147857Y-2989381D01*
X2147857Y-2941762D01*
X2138333Y-2922714D01*
X2128810Y-2913190D01*
X2109762Y-2903667D01*
X2071667Y-2903667D01*
X2052619Y-2913190D01*
X2043095Y-2922714D01*
X2033571Y-2941762D01*
X2385952Y-3027476D02*
X2385952Y-2827476D01*
X2471667Y-3027476D02*
X2471667Y-2922714D01*
X2462143Y-2903667D01*
X2443095Y-2894143D01*
X2414524Y-2894143D01*
X2395476Y-2903667D01*
X2385952Y-2913190D01*
X2595476Y-3027476D02*
X2576429Y-3017952D01*
X2566905Y-3008428D01*
X2557381Y-2989381D01*
X2557381Y-2932238D01*
X2566905Y-2913190D01*
X2576429Y-2903667D01*
X2595476Y-2894143D01*
X2624048Y-2894143D01*
X2643095Y-2903667D01*
X2652619Y-2913190D01*
X2662143Y-2932238D01*
X2662143Y-2989381D01*
X2652619Y-3008428D01*
X2643095Y-3017952D01*
X2624048Y-3027476D01*
X2595476Y-3027476D01*
X2776429Y-3027476D02*
X2757381Y-3017952D01*
X2747857Y-2998905D01*
X2747857Y-2827476D01*
X2928809Y-3017952D02*
X2909762Y-3027476D01*
X2871667Y-3027476D01*
X2852619Y-3017952D01*
X2843095Y-2998905D01*
X2843095Y-2922714D01*
X2852619Y-2903667D01*
X2871667Y-2894143D01*
X2909762Y-2894143D01*
X2928809Y-2903667D01*
X2938333Y-2922714D01*
X2938333Y-2941762D01*
X2843095Y-2960809D01*
X3014524Y-3017952D02*
X3033571Y-3027476D01*
X3071667Y-3027476D01*
X3090714Y-3017952D01*
X3100238Y-2998905D01*
X3100238Y-2989381D01*
X3090714Y-2970333D01*
X3071667Y-2960809D01*
X3043095Y-2960809D01*
X3024048Y-2951286D01*
X3014524Y-2932238D01*
X3014524Y-2922714D01*
X3024048Y-2903667D01*
X3043095Y-2894143D01*
X3071667Y-2894143D01*
X3090714Y-2903667D01*
X3166905Y-3103667D02*
X3176428Y-3094143D01*
X3195476Y-3065571D01*
X3205000Y-3046524D01*
X3214524Y-3017952D01*
X3224048Y-2970333D01*
X3224048Y-2932238D01*
X3214524Y-2884619D01*
X3205000Y-2856048D01*
X3195476Y-2837000D01*
X3176428Y-2808428D01*
X3166905Y-2798905D01*
D16*
X-1631500Y-3227500D02*
X-1605000Y-3201000D01*
X-1631500Y-3174500D01*
X-1658000Y-3201000D01*
X-1631500Y-3227500D01*
D11*
X-1309286Y-3091476D02*
X-1290238Y-3091476D01*
X-1271190Y-3101000D01*
X-1261667Y-3110524D01*
X-1252143Y-3129571D01*
X-1242619Y-3167667D01*
X-1242619Y-3215286D01*
X-1252143Y-3253381D01*
X-1261667Y-3272428D01*
X-1271190Y-3281952D01*
X-1290238Y-3291476D01*
X-1309286Y-3291476D01*
X-1328333Y-3281952D01*
X-1337857Y-3272428D01*
X-1347381Y-3253381D01*
X-1356905Y-3215286D01*
X-1356905Y-3167667D01*
X-1347381Y-3129571D01*
X-1337857Y-3110524D01*
X-1328333Y-3101000D01*
X-1309286Y-3091476D01*
X-1156905Y-3272428D02*
X-1147381Y-3281952D01*
X-1156905Y-3291476D01*
X-1166429Y-3281952D01*
X-1156905Y-3272428D01*
X-1156905Y-3291476D01*
X-966428Y-3091476D02*
X-1061667Y-3091476D01*
X-1071190Y-3186714D01*
X-1061667Y-3177190D01*
X-1042619Y-3167667D01*
X-995000Y-3167667D01*
X-975952Y-3177190D01*
X-966428Y-3186714D01*
X-956905Y-3205762D01*
X-956905Y-3253381D01*
X-966428Y-3272428D01*
X-975952Y-3281952D01*
X-995000Y-3291476D01*
X-1042619Y-3291476D01*
X-1061667Y-3281952D01*
X-1071190Y-3272428D01*
X-890238Y-3091476D02*
X-766428Y-3091476D01*
X-833095Y-3167667D01*
X-804524Y-3167667D01*
X-785476Y-3177190D01*
X-775952Y-3186714D01*
X-766428Y-3205762D01*
X-766428Y-3253381D01*
X-775952Y-3272428D01*
X-785476Y-3281952D01*
X-804524Y-3291476D01*
X-861667Y-3291476D01*
X-880714Y-3281952D01*
X-890238Y-3272428D01*
X-642619Y-3091476D02*
X-623571Y-3091476D01*
X-604524Y-3101000D01*
X-595000Y-3110524D01*
X-585476Y-3129571D01*
X-575952Y-3167667D01*
X-575952Y-3215286D01*
X-585476Y-3253381D01*
X-595000Y-3272428D01*
X-604524Y-3281952D01*
X-623571Y-3291476D01*
X-642619Y-3291476D01*
X-661667Y-3281952D01*
X-671190Y-3272428D01*
X-680714Y-3253381D01*
X-690238Y-3215286D01*
X-690238Y-3167667D01*
X-680714Y-3129571D01*
X-671190Y-3110524D01*
X-661667Y-3101000D01*
X-642619Y-3091476D01*
X-490238Y-3291476D02*
X-490238Y-3158143D01*
X-490238Y-3177190D02*
X-480714Y-3167667D01*
X-461667Y-3158143D01*
X-433095Y-3158143D01*
X-414048Y-3167667D01*
X-404524Y-3186714D01*
X-404524Y-3291476D01*
X-404524Y-3186714D02*
X-395000Y-3167667D01*
X-375952Y-3158143D01*
X-347381Y-3158143D01*
X-328333Y-3167667D01*
X-318810Y-3186714D01*
X-318810Y-3291476D01*
X-223571Y-3291476D02*
X-223571Y-3158143D01*
X-223571Y-3177190D02*
X-214048Y-3167667D01*
X-195000Y-3158143D01*
X-166429Y-3158143D01*
X-147381Y-3167667D01*
X-137857Y-3186714D01*
X-137857Y-3291476D01*
X-137857Y-3186714D02*
X-128333Y-3167667D01*
X-109286Y-3158143D01*
X-80714Y-3158143D01*
X-61667Y-3167667D01*
X-52143Y-3186714D01*
X-52143Y-3291476D01*
X338333Y-3081952D02*
X166905Y-3339095D01*
X595476Y-3091476D02*
X614524Y-3091476D01*
X633571Y-3101000D01*
X643095Y-3110524D01*
X652619Y-3129571D01*
X662143Y-3167667D01*
X662143Y-3215286D01*
X652619Y-3253381D01*
X643095Y-3272428D01*
X633571Y-3281952D01*
X614524Y-3291476D01*
X595476Y-3291476D01*
X576429Y-3281952D01*
X566905Y-3272428D01*
X557381Y-3253381D01*
X547857Y-3215286D01*
X547857Y-3167667D01*
X557381Y-3129571D01*
X566905Y-3110524D01*
X576429Y-3101000D01*
X595476Y-3091476D01*
X747857Y-3272428D02*
X757381Y-3281952D01*
X747857Y-3291476D01*
X738333Y-3281952D01*
X747857Y-3272428D01*
X747857Y-3291476D01*
X881190Y-3091476D02*
X900238Y-3091476D01*
X919286Y-3101000D01*
X928809Y-3110524D01*
X938333Y-3129571D01*
X947857Y-3167667D01*
X947857Y-3215286D01*
X938333Y-3253381D01*
X928809Y-3272428D01*
X919286Y-3281952D01*
X900238Y-3291476D01*
X881190Y-3291476D01*
X862143Y-3281952D01*
X852619Y-3272428D01*
X843095Y-3253381D01*
X833571Y-3215286D01*
X833571Y-3167667D01*
X843095Y-3129571D01*
X852619Y-3110524D01*
X862143Y-3101000D01*
X881190Y-3091476D01*
X1024048Y-3110524D02*
X1033571Y-3101000D01*
X1052619Y-3091476D01*
X1100238Y-3091476D01*
X1119286Y-3101000D01*
X1128810Y-3110524D01*
X1138333Y-3129571D01*
X1138333Y-3148619D01*
X1128810Y-3177190D01*
X1014524Y-3291476D01*
X1138333Y-3291476D01*
X1262143Y-3091476D02*
X1281190Y-3091476D01*
X1300238Y-3101000D01*
X1309762Y-3110524D01*
X1319286Y-3129571D01*
X1328810Y-3167667D01*
X1328810Y-3215286D01*
X1319286Y-3253381D01*
X1309762Y-3272428D01*
X1300238Y-3281952D01*
X1281190Y-3291476D01*
X1262143Y-3291476D01*
X1243095Y-3281952D01*
X1233571Y-3272428D01*
X1224048Y-3253381D01*
X1214524Y-3215286D01*
X1214524Y-3167667D01*
X1224048Y-3129571D01*
X1233571Y-3110524D01*
X1243095Y-3101000D01*
X1262143Y-3091476D01*
X1424048Y-3291476D02*
X1462143Y-3291476D01*
X1481190Y-3281952D01*
X1490714Y-3272428D01*
X1509762Y-3243857D01*
X1519286Y-3205762D01*
X1519286Y-3129571D01*
X1509762Y-3110524D01*
X1500238Y-3101000D01*
X1481190Y-3091476D01*
X1443095Y-3091476D01*
X1424048Y-3101000D01*
X1414524Y-3110524D01*
X1405000Y-3129571D01*
X1405000Y-3177190D01*
X1414524Y-3196238D01*
X1424048Y-3205762D01*
X1443095Y-3215286D01*
X1481190Y-3215286D01*
X1500238Y-3205762D01*
X1509762Y-3196238D01*
X1519286Y-3177190D01*
X1595476Y-3091476D02*
X1595476Y-3129571D01*
X1671667Y-3091476D02*
X1671667Y-3129571D01*
X1966905Y-3367667D02*
X1957381Y-3358143D01*
X1938333Y-3329571D01*
X1928809Y-3310524D01*
X1919286Y-3281952D01*
X1909762Y-3234333D01*
X1909762Y-3196238D01*
X1919286Y-3148619D01*
X1928809Y-3120048D01*
X1938333Y-3101000D01*
X1957381Y-3072428D01*
X1966905Y-3062905D01*
X2024048Y-3091476D02*
X2147857Y-3091476D01*
X2081190Y-3167667D01*
X2109762Y-3167667D01*
X2128810Y-3177190D01*
X2138333Y-3186714D01*
X2147857Y-3205762D01*
X2147857Y-3253381D01*
X2138333Y-3272428D01*
X2128810Y-3281952D01*
X2109762Y-3291476D01*
X2052619Y-3291476D01*
X2033571Y-3281952D01*
X2024048Y-3272428D01*
X2271667Y-3091476D02*
X2290714Y-3091476D01*
X2309762Y-3101000D01*
X2319286Y-3110524D01*
X2328810Y-3129571D01*
X2338333Y-3167667D01*
X2338333Y-3215286D01*
X2328810Y-3253381D01*
X2319286Y-3272428D01*
X2309762Y-3281952D01*
X2290714Y-3291476D01*
X2271667Y-3291476D01*
X2252619Y-3281952D01*
X2243095Y-3272428D01*
X2233571Y-3253381D01*
X2224048Y-3215286D01*
X2224048Y-3167667D01*
X2233571Y-3129571D01*
X2243095Y-3110524D01*
X2252619Y-3101000D01*
X2271667Y-3091476D01*
X2576429Y-3291476D02*
X2576429Y-3091476D01*
X2662143Y-3291476D02*
X2662143Y-3186714D01*
X2652619Y-3167667D01*
X2633571Y-3158143D01*
X2605000Y-3158143D01*
X2585952Y-3167667D01*
X2576429Y-3177190D01*
X2785952Y-3291476D02*
X2766905Y-3281952D01*
X2757381Y-3272428D01*
X2747857Y-3253381D01*
X2747857Y-3196238D01*
X2757381Y-3177190D01*
X2766905Y-3167667D01*
X2785952Y-3158143D01*
X2814524Y-3158143D01*
X2833571Y-3167667D01*
X2843095Y-3177190D01*
X2852619Y-3196238D01*
X2852619Y-3253381D01*
X2843095Y-3272428D01*
X2833571Y-3281952D01*
X2814524Y-3291476D01*
X2785952Y-3291476D01*
X2966905Y-3291476D02*
X2947857Y-3281952D01*
X2938333Y-3262905D01*
X2938333Y-3091476D01*
X3119286Y-3281952D02*
X3100238Y-3291476D01*
X3062143Y-3291476D01*
X3043095Y-3281952D01*
X3033571Y-3262905D01*
X3033571Y-3186714D01*
X3043095Y-3167667D01*
X3062143Y-3158143D01*
X3100238Y-3158143D01*
X3119286Y-3167667D01*
X3128809Y-3186714D01*
X3128809Y-3205762D01*
X3033571Y-3224809D01*
X3205000Y-3281952D02*
X3224048Y-3291476D01*
X3262143Y-3291476D01*
X3281190Y-3281952D01*
X3290714Y-3262905D01*
X3290714Y-3253381D01*
X3281190Y-3234333D01*
X3262143Y-3224809D01*
X3233571Y-3224809D01*
X3214524Y-3215286D01*
X3205000Y-3196238D01*
X3205000Y-3186714D01*
X3214524Y-3167667D01*
X3233571Y-3158143D01*
X3262143Y-3158143D01*
X3281190Y-3167667D01*
X3357381Y-3367667D02*
X3366905Y-3358143D01*
X3385952Y-3329571D01*
X3395476Y-3310524D01*
X3405000Y-3281952D01*
X3414524Y-3234333D01*
X3414524Y-3196238D01*
X3405000Y-3148619D01*
X3395476Y-3120048D01*
X3385952Y-3101000D01*
X3366905Y-3072428D01*
X3357381Y-3062905D01*
D17*
X-1690000Y-3422500D02*
X-1605000Y-3507500D01*
X-1605000Y-3422500D02*
X-1690000Y-3507500D01*
X-1605000Y-3465000D02*
G75*
G03*
X-1605000Y-3465000I-42500J0D01*
G01*
D11*
X-1309286Y-3355476D02*
X-1290238Y-3355476D01*
X-1271190Y-3365000D01*
X-1261667Y-3374524D01*
X-1252143Y-3393571D01*
X-1242619Y-3431667D01*
X-1242619Y-3479286D01*
X-1252143Y-3517381D01*
X-1261667Y-3536428D01*
X-1271190Y-3545952D01*
X-1290238Y-3555476D01*
X-1309286Y-3555476D01*
X-1328333Y-3545952D01*
X-1337857Y-3536428D01*
X-1347381Y-3517381D01*
X-1356905Y-3479286D01*
X-1356905Y-3431667D01*
X-1347381Y-3393571D01*
X-1337857Y-3374524D01*
X-1328333Y-3365000D01*
X-1309286Y-3355476D01*
X-1156905Y-3536428D02*
X-1147381Y-3545952D01*
X-1156905Y-3555476D01*
X-1166429Y-3545952D01*
X-1156905Y-3536428D01*
X-1156905Y-3555476D01*
X-1033095Y-3441190D02*
X-1052143Y-3431667D01*
X-1061667Y-3422143D01*
X-1071190Y-3403095D01*
X-1071190Y-3393571D01*
X-1061667Y-3374524D01*
X-1052143Y-3365000D01*
X-1033095Y-3355476D01*
X-995000Y-3355476D01*
X-975952Y-3365000D01*
X-966428Y-3374524D01*
X-956905Y-3393571D01*
X-956905Y-3403095D01*
X-966428Y-3422143D01*
X-975952Y-3431667D01*
X-995000Y-3441190D01*
X-1033095Y-3441190D01*
X-1052143Y-3450714D01*
X-1061667Y-3460238D01*
X-1071190Y-3479286D01*
X-1071190Y-3517381D01*
X-1061667Y-3536428D01*
X-1052143Y-3545952D01*
X-1033095Y-3555476D01*
X-995000Y-3555476D01*
X-975952Y-3545952D01*
X-966428Y-3536428D01*
X-956905Y-3517381D01*
X-956905Y-3479286D01*
X-966428Y-3460238D01*
X-975952Y-3450714D01*
X-995000Y-3441190D01*
X-775952Y-3355476D02*
X-871190Y-3355476D01*
X-880714Y-3450714D01*
X-871190Y-3441190D01*
X-852143Y-3431667D01*
X-804524Y-3431667D01*
X-785476Y-3441190D01*
X-775952Y-3450714D01*
X-766428Y-3469762D01*
X-766428Y-3517381D01*
X-775952Y-3536428D01*
X-785476Y-3545952D01*
X-804524Y-3555476D01*
X-852143Y-3555476D01*
X-871190Y-3545952D01*
X-880714Y-3536428D01*
X-642619Y-3355476D02*
X-623571Y-3355476D01*
X-604524Y-3365000D01*
X-595000Y-3374524D01*
X-585476Y-3393571D01*
X-575952Y-3431667D01*
X-575952Y-3479286D01*
X-585476Y-3517381D01*
X-595000Y-3536428D01*
X-604524Y-3545952D01*
X-623571Y-3555476D01*
X-642619Y-3555476D01*
X-661667Y-3545952D01*
X-671190Y-3536428D01*
X-680714Y-3517381D01*
X-690238Y-3479286D01*
X-690238Y-3431667D01*
X-680714Y-3393571D01*
X-671190Y-3374524D01*
X-661667Y-3365000D01*
X-642619Y-3355476D01*
X-490238Y-3555476D02*
X-490238Y-3422143D01*
X-490238Y-3441190D02*
X-480714Y-3431667D01*
X-461667Y-3422143D01*
X-433095Y-3422143D01*
X-414048Y-3431667D01*
X-404524Y-3450714D01*
X-404524Y-3555476D01*
X-404524Y-3450714D02*
X-395000Y-3431667D01*
X-375952Y-3422143D01*
X-347381Y-3422143D01*
X-328333Y-3431667D01*
X-318810Y-3450714D01*
X-318810Y-3555476D01*
X-223571Y-3555476D02*
X-223571Y-3422143D01*
X-223571Y-3441190D02*
X-214048Y-3431667D01*
X-195000Y-3422143D01*
X-166429Y-3422143D01*
X-147381Y-3431667D01*
X-137857Y-3450714D01*
X-137857Y-3555476D01*
X-137857Y-3450714D02*
X-128333Y-3431667D01*
X-109286Y-3422143D01*
X-80714Y-3422143D01*
X-61667Y-3431667D01*
X-52143Y-3450714D01*
X-52143Y-3555476D01*
X338333Y-3345952D02*
X166905Y-3603095D01*
X595476Y-3355476D02*
X614524Y-3355476D01*
X633571Y-3365000D01*
X643095Y-3374524D01*
X652619Y-3393571D01*
X662143Y-3431667D01*
X662143Y-3479286D01*
X652619Y-3517381D01*
X643095Y-3536428D01*
X633571Y-3545952D01*
X614524Y-3555476D01*
X595476Y-3555476D01*
X576429Y-3545952D01*
X566905Y-3536428D01*
X557381Y-3517381D01*
X547857Y-3479286D01*
X547857Y-3431667D01*
X557381Y-3393571D01*
X566905Y-3374524D01*
X576429Y-3365000D01*
X595476Y-3355476D01*
X747857Y-3536428D02*
X757381Y-3545952D01*
X747857Y-3555476D01*
X738333Y-3545952D01*
X747857Y-3536428D01*
X747857Y-3555476D01*
X881190Y-3355476D02*
X900238Y-3355476D01*
X919286Y-3365000D01*
X928809Y-3374524D01*
X938333Y-3393571D01*
X947857Y-3431667D01*
X947857Y-3479286D01*
X938333Y-3517381D01*
X928809Y-3536428D01*
X919286Y-3545952D01*
X900238Y-3555476D01*
X881190Y-3555476D01*
X862143Y-3545952D01*
X852619Y-3536428D01*
X843095Y-3517381D01*
X833571Y-3479286D01*
X833571Y-3431667D01*
X843095Y-3393571D01*
X852619Y-3374524D01*
X862143Y-3365000D01*
X881190Y-3355476D01*
X1014524Y-3355476D02*
X1138333Y-3355476D01*
X1071667Y-3431667D01*
X1100238Y-3431667D01*
X1119286Y-3441190D01*
X1128810Y-3450714D01*
X1138333Y-3469762D01*
X1138333Y-3517381D01*
X1128810Y-3536428D01*
X1119286Y-3545952D01*
X1100238Y-3555476D01*
X1043095Y-3555476D01*
X1024048Y-3545952D01*
X1014524Y-3536428D01*
X1205000Y-3355476D02*
X1328810Y-3355476D01*
X1262143Y-3431667D01*
X1290714Y-3431667D01*
X1309762Y-3441190D01*
X1319286Y-3450714D01*
X1328810Y-3469762D01*
X1328810Y-3517381D01*
X1319286Y-3536428D01*
X1309762Y-3545952D01*
X1290714Y-3555476D01*
X1233571Y-3555476D01*
X1214524Y-3545952D01*
X1205000Y-3536428D01*
X1509762Y-3355476D02*
X1414524Y-3355476D01*
X1405000Y-3450714D01*
X1414524Y-3441190D01*
X1433571Y-3431667D01*
X1481190Y-3431667D01*
X1500238Y-3441190D01*
X1509762Y-3450714D01*
X1519286Y-3469762D01*
X1519286Y-3517381D01*
X1509762Y-3536428D01*
X1500238Y-3545952D01*
X1481190Y-3555476D01*
X1433571Y-3555476D01*
X1414524Y-3545952D01*
X1405000Y-3536428D01*
X1595476Y-3355476D02*
X1595476Y-3393571D01*
X1671667Y-3355476D02*
X1671667Y-3393571D01*
X1966905Y-3631667D02*
X1957381Y-3622143D01*
X1938333Y-3593571D01*
X1928809Y-3574524D01*
X1919286Y-3545952D01*
X1909762Y-3498333D01*
X1909762Y-3460238D01*
X1919286Y-3412619D01*
X1928809Y-3384048D01*
X1938333Y-3365000D01*
X1957381Y-3336428D01*
X1966905Y-3326905D01*
X2147857Y-3555476D02*
X2033571Y-3555476D01*
X2090714Y-3555476D02*
X2090714Y-3355476D01*
X2071667Y-3384048D01*
X2052619Y-3403095D01*
X2033571Y-3412619D01*
X2385952Y-3555476D02*
X2385952Y-3355476D01*
X2471667Y-3555476D02*
X2471667Y-3450714D01*
X2462143Y-3431667D01*
X2443095Y-3422143D01*
X2414524Y-3422143D01*
X2395476Y-3431667D01*
X2385952Y-3441190D01*
X2595476Y-3555476D02*
X2576429Y-3545952D01*
X2566905Y-3536428D01*
X2557381Y-3517381D01*
X2557381Y-3460238D01*
X2566905Y-3441190D01*
X2576429Y-3431667D01*
X2595476Y-3422143D01*
X2624048Y-3422143D01*
X2643095Y-3431667D01*
X2652619Y-3441190D01*
X2662143Y-3460238D01*
X2662143Y-3517381D01*
X2652619Y-3536428D01*
X2643095Y-3545952D01*
X2624048Y-3555476D01*
X2595476Y-3555476D01*
X2776429Y-3555476D02*
X2757381Y-3545952D01*
X2747857Y-3526905D01*
X2747857Y-3355476D01*
X2928809Y-3545952D02*
X2909762Y-3555476D01*
X2871667Y-3555476D01*
X2852619Y-3545952D01*
X2843095Y-3526905D01*
X2843095Y-3450714D01*
X2852619Y-3431667D01*
X2871667Y-3422143D01*
X2909762Y-3422143D01*
X2928809Y-3431667D01*
X2938333Y-3450714D01*
X2938333Y-3469762D01*
X2843095Y-3488809D01*
X3005000Y-3631667D02*
X3014524Y-3622143D01*
X3033571Y-3593571D01*
X3043095Y-3574524D01*
X3052619Y-3545952D01*
X3062143Y-3498333D01*
X3062143Y-3460238D01*
X3052619Y-3412619D01*
X3043095Y-3384048D01*
X3033571Y-3365000D01*
X3014524Y-3336428D01*
X3005000Y-3326905D01*
D18*
X-1700000Y-3681500D02*
X-1605000Y-3776500D01*
X-1605000Y-3681500D02*
X-1700000Y-3776500D01*
X-1652500Y-3681500D02*
X-1652500Y-3776500D01*
X-1700000Y-3729000D02*
X-1605000Y-3729000D01*
D11*
X-1309286Y-3619476D02*
X-1290238Y-3619476D01*
X-1271190Y-3629000D01*
X-1261667Y-3638524D01*
X-1252143Y-3657571D01*
X-1242619Y-3695667D01*
X-1242619Y-3743286D01*
X-1252143Y-3781381D01*
X-1261667Y-3800428D01*
X-1271190Y-3809952D01*
X-1290238Y-3819476D01*
X-1309286Y-3819476D01*
X-1328333Y-3809952D01*
X-1337857Y-3800428D01*
X-1347381Y-3781381D01*
X-1356905Y-3743286D01*
X-1356905Y-3695667D01*
X-1347381Y-3657571D01*
X-1337857Y-3638524D01*
X-1328333Y-3629000D01*
X-1309286Y-3619476D01*
X-1156905Y-3800428D02*
X-1147381Y-3809952D01*
X-1156905Y-3819476D01*
X-1166429Y-3809952D01*
X-1156905Y-3800428D01*
X-1156905Y-3819476D01*
X-1052143Y-3819476D02*
X-1014048Y-3819476D01*
X-995000Y-3809952D01*
X-985476Y-3800428D01*
X-966428Y-3771857D01*
X-956905Y-3733762D01*
X-956905Y-3657571D01*
X-966428Y-3638524D01*
X-975952Y-3629000D01*
X-995000Y-3619476D01*
X-1033095Y-3619476D01*
X-1052143Y-3629000D01*
X-1061667Y-3638524D01*
X-1071190Y-3657571D01*
X-1071190Y-3705190D01*
X-1061667Y-3724238D01*
X-1052143Y-3733762D01*
X-1033095Y-3743286D01*
X-995000Y-3743286D01*
X-975952Y-3733762D01*
X-966428Y-3724238D01*
X-956905Y-3705190D01*
X-775952Y-3619476D02*
X-871190Y-3619476D01*
X-880714Y-3714714D01*
X-871190Y-3705190D01*
X-852143Y-3695667D01*
X-804524Y-3695667D01*
X-785476Y-3705190D01*
X-775952Y-3714714D01*
X-766428Y-3733762D01*
X-766428Y-3781381D01*
X-775952Y-3800428D01*
X-785476Y-3809952D01*
X-804524Y-3819476D01*
X-852143Y-3819476D01*
X-871190Y-3809952D01*
X-880714Y-3800428D01*
X-642619Y-3619476D02*
X-623571Y-3619476D01*
X-604524Y-3629000D01*
X-595000Y-3638524D01*
X-585476Y-3657571D01*
X-575952Y-3695667D01*
X-575952Y-3743286D01*
X-585476Y-3781381D01*
X-595000Y-3800428D01*
X-604524Y-3809952D01*
X-623571Y-3819476D01*
X-642619Y-3819476D01*
X-661667Y-3809952D01*
X-671190Y-3800428D01*
X-680714Y-3781381D01*
X-690238Y-3743286D01*
X-690238Y-3695667D01*
X-680714Y-3657571D01*
X-671190Y-3638524D01*
X-661667Y-3629000D01*
X-642619Y-3619476D01*
X-490238Y-3819476D02*
X-490238Y-3686143D01*
X-490238Y-3705190D02*
X-480714Y-3695667D01*
X-461667Y-3686143D01*
X-433095Y-3686143D01*
X-414048Y-3695667D01*
X-404524Y-3714714D01*
X-404524Y-3819476D01*
X-404524Y-3714714D02*
X-395000Y-3695667D01*
X-375952Y-3686143D01*
X-347381Y-3686143D01*
X-328333Y-3695667D01*
X-318810Y-3714714D01*
X-318810Y-3819476D01*
X-223571Y-3819476D02*
X-223571Y-3686143D01*
X-223571Y-3705190D02*
X-214048Y-3695667D01*
X-195000Y-3686143D01*
X-166429Y-3686143D01*
X-147381Y-3695667D01*
X-137857Y-3714714D01*
X-137857Y-3819476D01*
X-137857Y-3714714D02*
X-128333Y-3695667D01*
X-109286Y-3686143D01*
X-80714Y-3686143D01*
X-61667Y-3695667D01*
X-52143Y-3714714D01*
X-52143Y-3819476D01*
X338333Y-3609952D02*
X166905Y-3867095D01*
X595476Y-3619476D02*
X614524Y-3619476D01*
X633571Y-3629000D01*
X643095Y-3638524D01*
X652619Y-3657571D01*
X662143Y-3695667D01*
X662143Y-3743286D01*
X652619Y-3781381D01*
X643095Y-3800428D01*
X633571Y-3809952D01*
X614524Y-3819476D01*
X595476Y-3819476D01*
X576429Y-3809952D01*
X566905Y-3800428D01*
X557381Y-3781381D01*
X547857Y-3743286D01*
X547857Y-3695667D01*
X557381Y-3657571D01*
X566905Y-3638524D01*
X576429Y-3629000D01*
X595476Y-3619476D01*
X747857Y-3800428D02*
X757381Y-3809952D01*
X747857Y-3819476D01*
X738333Y-3809952D01*
X747857Y-3800428D01*
X747857Y-3819476D01*
X881190Y-3619476D02*
X900238Y-3619476D01*
X919286Y-3629000D01*
X928809Y-3638524D01*
X938333Y-3657571D01*
X947857Y-3695667D01*
X947857Y-3743286D01*
X938333Y-3781381D01*
X928809Y-3800428D01*
X919286Y-3809952D01*
X900238Y-3819476D01*
X881190Y-3819476D01*
X862143Y-3809952D01*
X852619Y-3800428D01*
X843095Y-3781381D01*
X833571Y-3743286D01*
X833571Y-3695667D01*
X843095Y-3657571D01*
X852619Y-3638524D01*
X862143Y-3629000D01*
X881190Y-3619476D01*
X1014524Y-3619476D02*
X1138333Y-3619476D01*
X1071667Y-3695667D01*
X1100238Y-3695667D01*
X1119286Y-3705190D01*
X1128810Y-3714714D01*
X1138333Y-3733762D01*
X1138333Y-3781381D01*
X1128810Y-3800428D01*
X1119286Y-3809952D01*
X1100238Y-3819476D01*
X1043095Y-3819476D01*
X1024048Y-3809952D01*
X1014524Y-3800428D01*
X1205000Y-3619476D02*
X1338333Y-3619476D01*
X1252619Y-3819476D01*
X1500238Y-3686143D02*
X1500238Y-3819476D01*
X1452619Y-3609952D02*
X1405000Y-3752809D01*
X1528809Y-3752809D01*
X1595476Y-3619476D02*
X1595476Y-3657571D01*
X1671667Y-3619476D02*
X1671667Y-3657571D01*
X1966905Y-3895667D02*
X1957381Y-3886143D01*
X1938333Y-3857571D01*
X1928809Y-3838524D01*
X1919286Y-3809952D01*
X1909762Y-3762333D01*
X1909762Y-3724238D01*
X1919286Y-3676619D01*
X1928809Y-3648048D01*
X1938333Y-3629000D01*
X1957381Y-3600428D01*
X1966905Y-3590905D01*
X2081190Y-3619476D02*
X2100238Y-3619476D01*
X2119286Y-3629000D01*
X2128810Y-3638524D01*
X2138333Y-3657571D01*
X2147857Y-3695667D01*
X2147857Y-3743286D01*
X2138333Y-3781381D01*
X2128810Y-3800428D01*
X2119286Y-3809952D01*
X2100238Y-3819476D01*
X2081190Y-3819476D01*
X2062143Y-3809952D01*
X2052619Y-3800428D01*
X2043095Y-3781381D01*
X2033571Y-3743286D01*
X2033571Y-3695667D01*
X2043095Y-3657571D01*
X2052619Y-3638524D01*
X2062143Y-3629000D01*
X2081190Y-3619476D01*
X2385952Y-3819476D02*
X2385952Y-3619476D01*
X2471667Y-3819476D02*
X2471667Y-3714714D01*
X2462143Y-3695667D01*
X2443095Y-3686143D01*
X2414524Y-3686143D01*
X2395476Y-3695667D01*
X2385952Y-3705190D01*
X2595476Y-3819476D02*
X2576429Y-3809952D01*
X2566905Y-3800428D01*
X2557381Y-3781381D01*
X2557381Y-3724238D01*
X2566905Y-3705190D01*
X2576429Y-3695667D01*
X2595476Y-3686143D01*
X2624048Y-3686143D01*
X2643095Y-3695667D01*
X2652619Y-3705190D01*
X2662143Y-3724238D01*
X2662143Y-3781381D01*
X2652619Y-3800428D01*
X2643095Y-3809952D01*
X2624048Y-3819476D01*
X2595476Y-3819476D01*
X2776429Y-3819476D02*
X2757381Y-3809952D01*
X2747857Y-3790905D01*
X2747857Y-3619476D01*
X2928809Y-3809952D02*
X2909762Y-3819476D01*
X2871667Y-3819476D01*
X2852619Y-3809952D01*
X2843095Y-3790905D01*
X2843095Y-3714714D01*
X2852619Y-3695667D01*
X2871667Y-3686143D01*
X2909762Y-3686143D01*
X2928809Y-3695667D01*
X2938333Y-3714714D01*
X2938333Y-3733762D01*
X2843095Y-3752809D01*
X3014524Y-3809952D02*
X3033571Y-3819476D01*
X3071667Y-3819476D01*
X3090714Y-3809952D01*
X3100238Y-3790905D01*
X3100238Y-3781381D01*
X3090714Y-3762333D01*
X3071667Y-3752809D01*
X3043095Y-3752809D01*
X3024048Y-3743286D01*
X3014524Y-3724238D01*
X3014524Y-3714714D01*
X3024048Y-3695667D01*
X3043095Y-3686143D01*
X3071667Y-3686143D01*
X3090714Y-3695667D01*
X3338333Y-3743286D02*
X3490714Y-3743286D01*
X3414524Y-3819476D02*
X3414524Y-3667095D01*
X3728809Y-3638524D02*
X3738333Y-3629000D01*
X3757381Y-3619476D01*
X3805000Y-3619476D01*
X3824048Y-3629000D01*
X3833571Y-3638524D01*
X3843095Y-3657571D01*
X3843095Y-3676619D01*
X3833571Y-3705190D01*
X3719286Y-3819476D01*
X3843095Y-3819476D01*
X4071667Y-3809952D02*
X4090714Y-3819476D01*
X4128809Y-3819476D01*
X4147857Y-3809952D01*
X4157381Y-3790905D01*
X4157381Y-3781381D01*
X4147857Y-3762333D01*
X4128809Y-3752809D01*
X4100238Y-3752809D01*
X4081190Y-3743286D01*
X4071667Y-3724238D01*
X4071667Y-3714714D01*
X4081190Y-3695667D01*
X4100238Y-3686143D01*
X4128809Y-3686143D01*
X4147857Y-3695667D01*
X4271667Y-3819476D02*
X4252619Y-3809952D01*
X4243095Y-3790905D01*
X4243095Y-3619476D01*
X4376429Y-3819476D02*
X4357381Y-3809952D01*
X4347857Y-3800428D01*
X4338333Y-3781381D01*
X4338333Y-3724238D01*
X4347857Y-3705190D01*
X4357381Y-3695667D01*
X4376429Y-3686143D01*
X4405000Y-3686143D01*
X4424048Y-3695667D01*
X4433571Y-3705190D01*
X4443095Y-3724238D01*
X4443095Y-3781381D01*
X4433571Y-3800428D01*
X4424048Y-3809952D01*
X4405000Y-3819476D01*
X4376429Y-3819476D01*
X4500238Y-3686143D02*
X4576429Y-3686143D01*
X4528810Y-3619476D02*
X4528810Y-3790905D01*
X4538333Y-3809952D01*
X4557381Y-3819476D01*
X4576429Y-3819476D01*
X4633571Y-3809952D02*
X4652619Y-3819476D01*
X4690714Y-3819476D01*
X4709762Y-3809952D01*
X4719286Y-3790905D01*
X4719286Y-3781381D01*
X4709762Y-3762333D01*
X4690714Y-3752809D01*
X4662143Y-3752809D01*
X4643095Y-3743286D01*
X4633571Y-3724238D01*
X4633571Y-3714714D01*
X4643095Y-3695667D01*
X4662143Y-3686143D01*
X4690714Y-3686143D01*
X4709762Y-3695667D01*
X4785952Y-3895667D02*
X4795476Y-3886143D01*
X4814524Y-3857571D01*
X4824048Y-3838524D01*
X4833571Y-3809952D01*
X4843095Y-3762333D01*
X4843095Y-3724238D01*
X4833571Y-3676619D01*
X4824048Y-3648048D01*
X4814524Y-3629000D01*
X4795476Y-3600428D01*
X4785952Y-3590905D01*
M02*
